<svg xmlns="http://www.w3.org/2000/svg" width="226.016" height="79.723" viewBox="0 0 226.016 79.723">
  <g id="HU-logo" transform="translate(79.746 -83.254)">
    <g id="Group_1471" data-name="Group 1471" transform="translate(-79.746 83.254)">
      <path id="Path_1" data-name="Path 1" d="M73.915,36.539c0-.082,0-.172-.006-.249a36.955,36.955,0,0,0-73.9,0v.192C0,36.644,0,36.8,0,36.968v.54a1.815,1.815,0,0,1,.01.237A36.977,36.977,0,0,0,25.55,72.226,4.849,4.849,0,0,0,26.562,70.4l.01-.02v-.059c.076-.365.171-.748.264-1.211l.065-.229c.461-1.908,1.015-3.691,1.024-3.719.138-.48.256-.852.355-1.1a6.7,6.7,0,0,1,.718-1.2,1.9,1.9,0,0,1,1.556-.748,2.579,2.579,0,0,1,.822.133l.509.211-.024-.542a3.83,3.83,0,0,0-.059-.549,24.754,24.754,0,0,1-6.179-2.185v-.117a24.757,24.757,0,0,1,3.811-45.669l-.035-.1a24.889,24.889,0,0,1,18.886,1.55v.112a24.768,24.768,0,0,1-3.8,45.681l.03.1a24.664,24.664,0,0,1-11.46.864c-1.372,2.851-1.621,7.582-1.621,10.566,0,.385-.026.892-.065,1.445A36.977,36.977,0,0,0,73.907,37.756c.006-.066.006-.125.006-.192,0-.16.011-.317.011-.486v-.108C73.926,36.818,73.915,36.682,73.915,36.539Z" transform="translate(0)" fill="#cda8cf"/>
      <path id="Path_2" data-name="Path 2" d="M43.969,7.93a35.976,35.976,0,0,0-10.778,70.3,5.632,5.632,0,0,0,.374-.887l.01-.02v-.059c.076-.365.171-.748.264-1.211l.065-.229c.461-1.908,1.015-3.691,1.024-3.719.138-.48.256-.852.355-1.1A6.7,6.7,0,0,1,36,69.8a1.9,1.9,0,0,1,1.556-.748,2.578,2.578,0,0,1,.822.133l.509.211-.024-.542a3.232,3.232,0,0,0-.514-1.72l2.369.207-.011.1C38.755,70,38.432,75.694,38.432,79.1c0,.1,0,.223-.007.338A35.97,35.97,0,1,0,43.969,7.93Z" transform="translate(-7.002 -6.941)" fill="#5e2568"/>
      <path id="Path_3" data-name="Path 3" d="M93.27,118.559a25.33,25.33,0,1,1,25.335,25.332A25.336,25.336,0,0,1,93.27,118.559" transform="translate(-81.639 -81.595)" fill="#cda8cf" fill-rule="evenodd"/>
      <path id="Path_4" data-name="Path 4" d="M217.987,494.688c0-3.409.323-9.1,2.277-11.66l.011-.1-2.369-.207a3.232,3.232,0,0,1,.514,1.72l.024.542-.509-.211a2.581,2.581,0,0,0-.822-.133,1.9,1.9,0,0,0-1.556.748,6.693,6.693,0,0,0-.718,1.2c-.1.25-.217.623-.355,1.1-.009.028-.562,1.811-1.024,3.719l-.065.229c-.094.459-.188.846-.264,1.211v.059Z" transform="translate(-186.552 -422.522)" fill="#fff" fill-rule="evenodd"/>
      <path id="Path_5" data-name="Path 5" d="M101.62,125.9a24.289,24.289,0,1,1,24.294,24.283A24.3,24.3,0,0,1,101.62,125.9" transform="translate(-88.947 -88.939)" fill="#fff" fill-rule="evenodd"/>
      <path id="Path_6" data-name="Path 6" d="M116.67,137.942A22.336,22.336,0,1,1,139,160.282a22.336,22.336,0,0,1-22.335-22.34" transform="translate(-102.121 -101.193)" fill="#d5c195" fill-rule="evenodd"/>
      <path id="Path_7" data-name="Path 7" d="M157.849,140.25a26.183,26.183,0,0,0-5.351,4.822l1.9.125s.623-.43.792-.014-.259.748-.259.748l-1.363.019.687.461-.974,1.228.024,1.945c0,.365.908.883.908.883a7.251,7.251,0,0,0,1.851.5c.584-.01,2.58-.312,3.84-.326s1.177,1.349,1.177,1.349a3.362,3.362,0,0,0-1.65-.657,13.231,13.231,0,0,0-3.833.109,3.255,3.255,0,0,1-1.794-.288,2.112,2.112,0,0,0,.1,3.057c.861.885,2.853.748,4.054.1a3.279,3.279,0,0,1,2.634.009,9.017,9.017,0,0,1-3.983,1.428,3.55,3.55,0,0,1-4.128-1.561,4.273,4.273,0,0,1,1-3.337,10.14,10.14,0,0,0-.858-.934c-.214-.157-.286-1.363-.392-1.681s-.7-1.465-.7-1.465a1.716,1.716,0,0,1,.06-2.161,39.378,39.378,0,0,1,5.621-4.716,2.6,2.6,0,0,1,1.272-2.973l2.665-1.72q2.12-6.31,8.177-6.124-6.506,1.462-6.859,6.419-5.453,2.629-4.614,4.756" transform="translate(-132.321 -112.972)" fill="#5e2568" fill-rule="evenodd"/>
      <path id="Path_8" data-name="Path 8" d="M221.715,217.2l-2.641-.49a6.286,6.286,0,0,1-1.014,2.283,3.881,3.881,0,0,1,3.355-1.1Z" transform="translate(-190.866 -189.685)" fill="#5e2568" fill-rule="evenodd"/>
      <path id="Path_9" data-name="Path 9" d="M234.322,219.487a18.508,18.508,0,0,0-4.714,15.921,28.743,28.743,0,0,1,3.7-12.7c.408-.792,5.669-8.081,5.669-8.081L235.661,218q.265-2.391,3.224-6.681c-.5-3.771-1.646-6.059-3.474-6.848,1.452,1.561,2.307,3.991,2.535,7.292a11.8,11.8,0,0,0-3.624,7.732" transform="translate(-200.751 -178.971)" fill="#5e2568" fill-rule="evenodd"/>
      <path id="Path_10" data-name="Path 10" d="M256.36,136.8l2.154-1.085q2.245-3.954,8.84-3.919-8.4-.917-10.994,5" transform="translate(-224.391 -115.254)" fill="#5e2568" fill-rule="evenodd"/>
      <path id="Path_11" data-name="Path 11" d="M317.58,141.178a17.6,17.6,0,0,1,12.857,7.652q-3.958-8.671-12.857-7.652" transform="translate(-277.976 -123.478)" fill="#5e2568" fill-rule="evenodd"/>
      <path id="Path_12" data-name="Path 12" d="M315.482,162.917q1.255-5.946-1.942-6.547c1.587,1.208,1.871,3.017.873,5.409Z" transform="translate(-274.44 -136.87)" fill="#5e2568" fill-rule="evenodd"/>
      <path id="Path_13" data-name="Path 13" d="M290.243,165.086l-.071-1.621-1.462.7c.029-2.442.688-3.616,2-3.5q1.829.949.95,3.833c-.389.712-.857.909-1.415.594" transform="translate(-252.705 -140.622)" fill="#5e2568" fill-rule="evenodd"/>
      <path id="Path_14" data-name="Path 14" d="M354.481,167.61a9.651,9.651,0,0,1,.823,1.925s2.1-.249,4.489,2.816a7.035,7.035,0,0,0-5.314-4.739" transform="translate(-310.274 -146.708)" fill="#5e2568" fill-rule="evenodd"/>
      <path id="Path_15" data-name="Path 15" d="M366.688,191.714l-.748-2.144a5.625,5.625,0,0,1,3.539,3.219c-1.4-1.467-2.611-1.216-2.786-1.075" transform="translate(-320.305 -165.93)" fill="#5e2568" fill-rule="evenodd"/>
      <path id="Path_16" data-name="Path 16" d="M337,173.9a12.862,12.862,0,0,1,2.46,7.556c.115,4.779.89,6.555,2.066,8.688-1.1-3.524-.5-6.55-.464-9.044s-1.953-5.529-4.063-7.2" transform="translate(-294.974 -152.213)" fill="#5e2568" fill-rule="evenodd"/>
      <path id="Path_17" data-name="Path 17" d="M380.24,219a12.651,12.651,0,0,1,.273,6.1,10.423,10.423,0,0,0,1.079,7.376c.925,1.783,2.381,2.888,3.024.818a6.49,6.49,0,0,0-.742-5.306,4.12,4.12,0,0,1-1.279,5.2c-.716-1.175-.576-2.494-.541-4.814s.572-6.123-1.813-9.374" transform="translate(-332.821 -191.689)" fill="#5e2568" fill-rule="evenodd"/>
      <path id="Path_18" data-name="Path 18" d="M335.4,308.583c.025-.422.047-.945.025-1.574-3.477-3.964-2.137-10.81-2.137-10.81a14.75,14.75,0,0,0,1.354,11.473,10.067,10.067,0,0,0,.758.912" transform="translate(-291.185 -259.262)" fill="#5e2568" fill-rule="evenodd"/>
      <path id="Path_19" data-name="Path 19" d="M372.045,230.988c-2.918-3-2.567-4.988-2.567-4.988-.748,3.918,1.1,5.342,2.4,7.017s2.845,3.492,2.558,6.128c-1.519,8.121-5.9,9.241-8.621,7.732a5.961,5.961,0,0,1-.181,1.445c1.825,1.162,4.418,1.413,7.482-2.308,4.634-5.63,1.846-12.039-1.07-15.027" transform="translate(-320.034 -197.816)" fill="#5e2568" fill-rule="evenodd"/>
      <path id="Path_20" data-name="Path 20" d="M364.765,321.32s-.635.54-.283,2.639.428,4.806-1.422,4.42c0,0,.748,1.924,1.746,1.136s1.034-2.427.53-3.878a10.747,10.747,0,0,1-.571-4.316" transform="translate(-317.784 -281.249)" fill="#5e2568" fill-rule="evenodd"/>
      <path id="Path_21" data-name="Path 21" d="M346.738,353.091s-.561.72-.521,3.522-.157,3.727-1.486,2.868c0,0,.278,2.3,1.28,1.833s1.515-2.684,1.247-4.087-.914-2.677-.524-4.138" transform="translate(-301.74 -309.057)" fill="#5e2568" fill-rule="evenodd"/>
      <path id="Path_22" data-name="Path 22" d="M308.559,381.49a17.229,17.229,0,0,0-.4,3.255c-.027,1.688-.85,3.492-2.276,3.845s-1.854-.873-1.645-1.725c0,0-.9,3.184,1.807,3.417,2.068.166,3.227-2.473,2.917-4.756a24.37,24.37,0,0,1-.4-4.035" transform="translate(-266.167 -333.916)" fill="#5e2568" fill-rule="evenodd"/>
      <path id="Path_23" data-name="Path 23" d="M263.031,309.965s1.291,9.781-3.156,13.9c-2.09,1.937-4.947,1.41-4.017-3.912,0,0-1.834,6.884,2.185,6.518s6.653-8.6,4.988-16.507" transform="translate(-223.585 -271.306)" fill="#5e2568" fill-rule="evenodd"/>
      <path id="Path_24" data-name="Path 24" d="M243.881,390.9s-2.333,3.969-.5,7.333a1.946,1.946,0,0,0,2.619.544c-1.405,1.513-3.055,1.156-3.842-.443-1.146-2.361.551-6.263,1.73-7.434" transform="translate(-211.627 -342.152)" fill="#5e2568" fill-rule="evenodd"/>
      <path id="Path_25" data-name="Path 25" d="M330.384,227.481s3.565,7.535.171,13.824a14.867,14.867,0,0,0-.451-11.739s.011-.219-.313.176c-.256.333-.677,1.035-1.015.389s1.277-3.309,1.609-2.65" transform="translate(-287.734 -199.022)" fill="#5e2568" fill-rule="evenodd"/>
      <path id="Path_26" data-name="Path 26" d="M410.623,207.14s3.267,2.69,3.817,10.928c0,0-.347-5.381-3.5-8.651a7.111,7.111,0,0,0,.6,3.578c.261.234.433-1.095.288-1.856.7,1.568.755,2.8.238,3.012s-2.014-2.438-1.443-7.011" transform="translate(-359.303 -181.308)" fill="#5e2568" fill-rule="evenodd"/>
      <path id="Path_27" data-name="Path 27" d="M280.594,367.727a13.127,13.127,0,0,0,1.2-1.427c.082,2.744-.027,3.448-1.723,5.7a6.49,6.49,0,0,0,.524-4.272" transform="translate(-245.144 -320.62)" fill="#5e2568" fill-rule="evenodd"/>
      <path id="Path_28" data-name="Path 28" d="M254.9,331.555c.2-.405,1.954-1.232,2.773-.125.316.535-2.459,4.88-6.6,6.659a15.84,15.84,0,0,0,4.629-4.864c.682-1.208-1.227-.85-.8-1.676" transform="translate(-219.769 -289.614)" fill="#5e2568" fill-rule="evenodd"/>
      <path id="Path_29" data-name="Path 29" d="M219.028,557.048c.544-.219.637.046-.18.358-5.205,2.005-11.081,1.863-16.319.758a77,77,0,0,1-11.439-3.206l.5-1.107s26.782,3.465,27.435,3.2" transform="translate(-167.259 -484.782)" fill="#deca95" fill-rule="evenodd"/>
      <path id="Path_30" data-name="Path 30" d="M206.221,479.043l.347-.8c.535.258,5.7,2.791,8.48,3.741,5.992,2.063,11.458,3.386,15.409,3.386a31.093,31.093,0,0,0,5.624-.47,21.235,21.235,0,0,0,4.31-1.262,11.107,11.107,0,0,0,2.977-2.711c.342-.434.624-.7.642-.458.384,3.533-3.767,5.921-9.589,6.678-5.916.768-11.58-1.927-17.085-3.169a28.155,28.155,0,0,1-11.116-4.93" transform="translate(-180.503 -418.6)" fill="#cda8cf" fill-rule="evenodd"/>
      <path id="Path_31" data-name="Path 31" d="M206.23,481.617l.414-.657c.539.249,5.635,2.637,8.411,3.591,5.992,2.064,11.458,3.387,15.409,3.387a30.333,30.333,0,0,0,5.624-.476,20.074,20.074,0,0,0,5.874-2c.273-.1-.062.276-.185.385-1.68,1.514-5.694,2.578-7.575,2.815-5.924.758-11.355-.873-16.857-2.131a28.07,28.07,0,0,1-11.116-4.922" transform="translate(-180.512 -420.981)" fill="#deca95" fill-rule="evenodd"/>
      <path id="Path_32" data-name="Path 32" d="M225.774,493.441l.418.632s.17.2-1.334,1.428a24.39,24.39,0,0,1-5.375,3.549c-5.223,1.893-10.787,1.521-16.227.288a62.89,62.89,0,0,1-11.336-3.569l2.53-8.249a79.757,79.757,0,0,0,7.849,3.539c6.051,2.076,9.727,3.252,15.622,3.3a25.262,25.262,0,0,0,7.857-.92" transform="translate(-167.987 -426.723)" fill="#cda8cf" fill-rule="evenodd"/>
      <path id="Path_33" data-name="Path 33" d="M208.79,503.153c6.134,2.107,9.92,3.319,15.95,3.357,5.443.052,7.309-.783,7.309-.783a24.56,24.56,0,0,1-6.371,4.2c-3.9,1.45-10.277,1.347-15.588.078a79.315,79.315,0,0,1-10.369-3.157l2.12-6.8a61.4,61.4,0,0,0,6.954,3.117" transform="translate(-174.814 -437.682)" fill="#deca95" fill-rule="evenodd"/>
      <path id="Path_34" data-name="Path 34" d="M264.919,473.88s-3.492,1.882-3.395,13.016c.037,4.508,1.161,6.555,1.161,6.555l-5.524-3.53-5.461,3.554s.591-4.63.591-6.518.077-9.96,2.792-12a.36.36,0,0,1,.307-.1,21.84,21.84,0,0,0,9.529-.971" transform="translate(-220.312 -414.784)" fill="#deca95" fill-rule="evenodd"/>
      <path id="Path_35" data-name="Path 35" d="M246.78,490.989l.081-1.085c.015-.125.58-4.63.58-6.472,0-3.785.392-10.4,2.979-12.4a.9.9,0,0,1,.617-.239h.095l.175.023c.531.045,1.439.125,2.576.125a18.693,18.693,0,0,0,6.541-1.082l.44.971c-.024.015-3.514,1.716-3.463,12.257.042,5.174.65,4.926.873,5.925l.7,1.924-6.122-3.907Zm6.077-4.769,4.82,2.862a11.8,11.8,0,0,1-1-5.7c-.05-6.787,1.215-10.251,2.29-11.951a21.689,21.689,0,0,1-5.086.576h0c-1.182,0-2.112-.085-2.67-.125l-.125-.015c-1.613,1.225-2.553,5.548-2.808,11.549-.091,2.189-.374,2.9-.64,6.1Z" transform="translate(-216.005 -411.266)" fill="#cda8cf"/>
      <path id="Path_36" data-name="Path 36" d="M269.234,496.409l-3.7,2.453.021-.249a18.632,18.632,0,0,0,.267-3.492c0-5.9.934-10.06,2.619-11.722l.162.171c-1.639,1.61-2.548,5.713-2.548,11.548a16.449,16.449,0,0,1-.243,3.271l3.426-2.256,3.593,2.369c-.611-1.677-.887-1.553-.873-3.436.072-5.032.635-9.135,1.939-11.856l.211.1c-1.291,2.688-1.945,6.747-1.9,11.754.01,1.485.5,2.369,1.15,4.411Z" transform="translate(-232.417 -422.951)" fill="#cda8cf"/>
      <path id="Path_37" data-name="Path 37" d="M171.378,485.952c.091-.405.181-.817.284-1.223a.826.826,0,0,1,.057-.249c.469-1.942,1.03-3.729,1.03-3.729.131-.454.256-.864.365-1.143a8,8,0,0,1,.762-1.281,2.494,2.494,0,0,1,2.793-.717c-.059-1.8-1.372-2.846-3.407-2.68s-2.744,2.465-2.78,3.552-1.285,1.706-1.973,2.2c-.71.487-1.554.566-2,1.067-.474.5.611,1.444,1.657,1.056l.823-.314a6.545,6.545,0,0,1-.963,2.711,2.069,2.069,0,0,1-2.184.557s-.188,2.966,2.566,2.881a3.325,3.325,0,0,0,2.97-2.663v-.03" transform="translate(-145.157 -415.688)" fill="#deca95" fill-rule="evenodd"/>
      <path id="Path_38" data-name="Path 38" d="M165.838,486.564h0a2.638,2.638,0,0,1-2-.777,3.611,3.611,0,0,1-.8-2.484l.025-.458.443.141a2.121,2.121,0,0,0,.615.091,1.381,1.381,0,0,0,1.161-.524,5.243,5.243,0,0,0,.782-1.94l-.222.092a1.86,1.86,0,0,1-.641.125,1.72,1.72,0,0,1-1.543-.881.777.777,0,0,1,.117-.863,3.053,3.053,0,0,1,1.165-.68,4.538,4.538,0,0,0,.917-.448,4.39,4.39,0,0,1,.374-.249c.634-.422,1.412-.948,1.433-1.669.041-1.19.859-3.7,3.106-3.892.147-.009.305-.019.445-.019a3.032,3.032,0,0,1,3.353,3.049l.024.542-.509-.211a2.582,2.582,0,0,0-.822-.133,1.9,1.9,0,0,0-1.556.748,6.67,6.67,0,0,0-.718,1.2c-.1.249-.217.624-.355,1.1-.009.027-.562,1.811-1.024,3.719l-.065.229c-.093.459-.188.846-.264,1.211v.059l-.01.02c-.579,1.826-1.752,2.861-3.3,2.912Zm-2.076-2.8a2.645,2.645,0,0,0,.6,1.541,1.9,1.9,0,0,0,1.473.55h.1a2.981,2.981,0,0,0,2.639-2.37v-.034c.081-.374.17-.768.276-1.22a1.21,1.21,0,0,1,.07-.308c.468-1.91,1.026-3.7,1.03-3.714.145-.5.266-.894.374-1.167l.012-.022a7.429,7.429,0,0,1,.8-1.346,2.619,2.619,0,0,1,2.12-1.014,3.084,3.084,0,0,1,.552.046,2.364,2.364,0,0,0-2.6-1.871c-.112,0-.249,0-.385.011-1.781.153-2.421,2.23-2.457,3.215-.021,1.084-1.02,1.746-1.746,2.231-.14.083-.249.165-.364.241a4.557,4.557,0,0,1-1.066.529,2.54,2.54,0,0,0-.89.5c-.008.009-.021.027,0,.095a1.051,1.051,0,0,0,.9.458,1.121,1.121,0,0,0,.385-.069l1.362-.532-.07.585a6.891,6.891,0,0,1-1.029,2.894,2.084,2.084,0,0,1-1.731.809A1.926,1.926,0,0,1,163.761,483.76Z" transform="translate(-142.705 -413.252)" fill="#cda8cf"/>
      <path id="Path_39" data-name="Path 39" d="M288.463,499.4l-.733-.263V496.89h.109a9.733,9.733,0,0,0,1.469,1.4,1.884,1.884,0,0,0,1.043.405.831.831,0,0,0,.594-.227.7.7,0,0,0,.228-.524.887.887,0,0,0-.156-.5,1.081,1.081,0,0,0-.486-.338v-.092a1.236,1.236,0,0,1,.792.355.982.982,0,0,1,.279.725,1.074,1.074,0,0,1-.292.766.941.941,0,0,1-.712.314,1.363,1.363,0,0,1-.565-.136,3.778,3.778,0,0,1-.966-.671c-.508-.466-.8-.748-.917-.873v1a2.2,2.2,0,0,0,.026.422.711.711,0,0,0,.086.22.587.587,0,0,0,.2.167Z" transform="translate(-251.848 -434.925)" fill="#5e2568"/>
      <path id="Path_40" data-name="Path 40" d="M285.249,521.156a2.9,2.9,0,0,1,1.114.2,1.623,1.623,0,0,1,.695.526.937.937,0,0,1,.185.52,1.013,1.013,0,0,1-.449.786,2.4,2.4,0,0,1-1.5.427,3.035,3.035,0,0,1-1.122-.182,1.41,1.41,0,0,1-.661-.489.958.958,0,0,1-.217-.573,1.037,1.037,0,0,1,.637-.894A2.638,2.638,0,0,1,285.249,521.156Zm-.073.551a3.52,3.52,0,0,0-1.276.194c-.284.109-.424.261-.424.478a.466.466,0,0,0,.14.309.809.809,0,0,0,.455.249,5.462,5.462,0,0,0,1.356.125,3.693,3.693,0,0,0,1.082-.135.966.966,0,0,0,.455-.263.414.414,0,0,0,.095-.274.449.449,0,0,0-.172-.343,1.443,1.443,0,0,0-.736-.271,6.069,6.069,0,0,0-.98-.069Z" transform="translate(-247.962 -456.164)" fill="#5e2568"/>
      <path id="Path_41" data-name="Path 41" d="M285.583,547.29l.449.927v.089h-3.209a1.514,1.514,0,0,0-.392.029.192.192,0,0,0-.125.111.823.823,0,0,0-.041.342h-.106v-1.425h.1a.818.818,0,0,0,.041.345.249.249,0,0,0,.1.106,1.46,1.46,0,0,0,.413.029h2.06a3.277,3.277,0,0,0,.533-.024.221.221,0,0,0,.125-.071.248.248,0,0,0,.044-.125.635.635,0,0,0-.095-.284Z" transform="translate(-246.974 -479.039)" fill="#5e2568"/>
      <path id="Path_42" data-name="Path 42" d="M278.178,566.718h-.4v-.509h-1v-.465h1v-1.6h.36l2.512,1.757v.312h-2.468Zm0-.97h1.871l-1.871-1.332Z" transform="translate(-242.256 -493.788)" fill="#5e2568"/>
      <path id="Path_43" data-name="Path 43" d="M35.609,74.605a2.952,2.952,0,0,1-.365.167l-.445-.556c-.062-.065-.14-.141-.239-.231l-1.257.624c-.431.249-.748.446-.976.562l-.125.062c-.14.061-.476.249-1.018.546l-.125.087-.424.207-.418.249L30,76.448a6.649,6.649,0,0,0-.642.4.693.693,0,0,0-.1.108.683.683,0,0,0,.026.1c.017.027.027.071.045.1a3.779,3.779,0,0,0,.178.443l.02.089a1.328,1.328,0,0,1,.076.219.721.721,0,0,1-.18.107.425.425,0,0,1-.176.062c-.041-.054-.1-.15-.171-.261s-.111-.2-.14-.242c-.175-.424-.323-.732-.424-.929-.057-.086-.092-.176-.146-.269a2.315,2.315,0,0,0-.125-.249c-.055-.11-.212-.364-.481-.763a1.11,1.11,0,0,1-.138-.2,3.224,3.224,0,0,1-.158-.314.748.748,0,0,0,.143-.092c.064-.02.131-.054.221-.089l.616.8a.167.167,0,0,0,.2.022l.17-.11.086-.047.211-.111.171-.091.037-.015a.125.125,0,0,1,.085-.056l.624-.343c.057-.035.1-.066.133-.082l.155-.079c.054-.02.115-.055.171-.082s.162-.1.335-.2c-.031-.1-.067-.188-.09-.249l-.4-.737-.2-.352-.483-.889-.5-.846a2.088,2.088,0,0,0-.232-.337c-.116.056-.39.2-.828.436l-.223.107-.819.485-.308.239a.167.167,0,0,0-.032.108,3.542,3.542,0,0,0,.152.784,1.944,1.944,0,0,1,.044.2,1.176,1.176,0,0,1-.3.117.4.4,0,0,1-.076-.125l-.261-.47a6.929,6.929,0,0,0-.45-.954c-.036-.076-.07-.125-.094-.172L25.353,71a.766.766,0,0,0-.1-.158,1.886,1.886,0,0,1-.238-.342c-.051-.094-.1-.2-.166-.344a2.959,2.959,0,0,1,.354-.172c.229.264.384.441.454.513a1.838,1.838,0,0,0,.271.21l.1-.026.1-.044.111-.074.071-.032a1.151,1.151,0,0,0,.163-.067l.125-.07c.14-.082.223-.132.242-.146l.624-.345.456-.267.624-.332c.152-.076.435-.249.873-.5l.7-.394.576-.317c.108-.069.238-.125.4-.209a1.2,1.2,0,0,0-.059-.221,4.047,4.047,0,0,1-.181-.8l.343-.207c.07.131.116.207.125.229q.151.269.274.552a12.55,12.55,0,0,0,.673,1.312,10.186,10.186,0,0,0,.632,1,.559.559,0,0,1,.065.186,1.5,1.5,0,0,1-.352.137l-.293-.328-.269-.35a1.655,1.655,0,0,1-.125-.125,14.324,14.324,0,0,0-1.342.678l-.433.207a5.023,5.023,0,0,1-.594.387,3.682,3.682,0,0,0,.19.4l1.247,2.287.017.054.01.031a.433.433,0,0,1,.047.076c.051.081.091.157.132.216l.07.138a.749.749,0,0,0,.155.188l.374-.182.062-.031a1.475,1.475,0,0,1,.162-.1l1.516-.843c.082-.049.168-.1.249-.157l.009-.057-.291-.8c-.015-.045-.02-.072-.026-.09a.283.283,0,0,1-.007-.138c.062-.054.113-.086.135-.1l.19-.077c.066.125.125.217.17.3s.072.146.108.2a.7.7,0,0,1,.035.092l.365.7c.076.171.193.407.354.7l.064.108c.089.133.133.209.148.227C35.176,73.866,35.362,74.174,35.609,74.605ZM30.878,65.6a5,5,0,0,0-.187-.762l-.081-.217c-.076-.88-.135-1.428-.162-1.656a.72.72,0,0,0-.133.011c-.055.012-.14.024-.271.05v.4a1.049,1.049,0,0,1-.067.511.258.258,0,0,1-.2.111A1.213,1.213,0,0,1,29.369,64c-.723-.135-1.183-.222-1.38-.279l-.327-2.108,1.02-.61.5-.307a.429.429,0,0,1,.148-.051.189.189,0,0,1,.125.035,1,1,0,0,1,.156.3l.234.592a2.2,2.2,0,0,0,.374-.04l-.049-.268-.195-.934c-.031-.125-.071-.34-.115-.624-.039-.264-.074-.556-.1-.9s-.055-.635-.1-.9a.954.954,0,0,0-.125.014c-.054.011-.15.035-.269.07a2.136,2.136,0,0,0-.041.51.757.757,0,0,1-.064.345,1.02,1.02,0,0,1-.249.212,6.1,6.1,0,0,1-.665.407c-.329.191-.569.33-.725.429-.274.173-.624.385-1.048.624s-.873.515-1.312.806L23.04,62.646l-.094.065.029.249c.024.111.042.228.067.353l3.648.764,3.105.651a1.007,1.007,0,0,1,.355.182,1.621,1.621,0,0,1,.221.5c.066.166.117.286.147.35l.387-.05Zm-3.5-2c-.125-.873-.2-1.372-.228-1.529l-.022-.133c-.322.158-.675.362-1.087.606s-.711.444-.932.594Zm2.432-7.7c.045-.559.095-1.03.155-1.43l.156-.939a6.811,6.811,0,0,0,.072-.948,4.061,4.061,0,0,0-.148-1.023,2.036,2.036,0,0,0-.424-.732,1.358,1.358,0,0,0-.5-.418,2.294,2.294,0,0,0-.748-.249,1.636,1.636,0,0,0-1.177.274,2.279,2.279,0,0,0-.873,1.183,4.278,4.278,0,0,0-.268-.764,1.674,1.674,0,0,0-.422-.526,1.372,1.372,0,0,0-.592-.233,2.012,2.012,0,0,0-.591.019,1.325,1.325,0,0,0-.534.249,1.415,1.415,0,0,0-.43.43,2.188,2.188,0,0,0-.249.426,3.76,3.76,0,0,0-.261.905l-.047.352c-.031.16-.036.249-.045.291a.691.691,0,0,0-.01.136l-.027.215-.2,1.821-.15,1.247.4.041c.079-.286.125-.465.146-.536a.612.612,0,0,1,.113-.321c.024-.022.036-.041.06-.046a1.5,1.5,0,0,1,.525.019c1.039.125,1.677.2,1.929.233l2.359.319a5.834,5.834,0,0,1,.9.177,1,1,0,0,1,.238.133,2.842,2.842,0,0,1,.059.6c0,.125,0,.236,0,.325l.448.08c.076-.726.117-1.152.131-1.313Zm-3.978-1.857a5.064,5.064,0,0,0,.1-.521,2.2,2.2,0,0,0-.125-1.307,1.2,1.2,0,0,0-1-.574,1.16,1.16,0,0,0-.949.278,1.849,1.849,0,0,0-.53,1.166c-.01.157-.022.374-.022.624.089.019.206.032.368.05.32.026.754.081,1.327.156l.47.087a2.845,2.845,0,0,1,.355.039Zm3.543.417a1.793,1.793,0,0,0,.249-.653,2.3,2.3,0,0,0-.046-1.056,1.287,1.287,0,0,0-.45-.66,2.013,2.013,0,0,0-.836-.307,1.764,1.764,0,0,0-.888.077,1.435,1.435,0,0,0-.691.592,3.242,3.242,0,0,0-.311,1.161,1.15,1.15,0,0,0-.017.49l.678.09.819.141,1.279.162A.717.717,0,0,0,29.374,54.459ZM31.2,48.7c.112-.36.2-.637.268-.824l.393-.914c.2-.4.319-.615.345-.662a.756.756,0,0,0,.069-.125,1.37,1.37,0,0,1,.067-.192.468.468,0,0,1,.04-.111,1.009,1.009,0,0,0-.18-.072,1.274,1.274,0,0,0-.266-.086c-.1.17-.158.273-.177.3a3.142,3.142,0,0,1-.328.545.265.265,0,0,1-.125-.034l-.2-.076-1.044-.42-.683-.294-1.372-.55c-.319-.125-.764-.313-1.346-.559a3.8,3.8,0,0,1-.374-.125,2.158,2.158,0,0,1-.374-.195,2.736,2.736,0,0,1,.049-.5c.026-.192.045-.374.052-.53-.089-.041-.171-.076-.224-.107l-.165-.054c-.025.069-.076.228-.163.48-.152.465-.269.8-.354,1-.019.045-.072.161-.155.34L24.308,46.4l.454.173c.026-.042.054-.108.085-.173a2.4,2.4,0,0,1,.412-.65,1.415,1.415,0,0,1,.186.032l.226.079.6.226.269.125.688.267c.021.006.374.162,1.05.458l.288.108,1.178.486.614.249a.887.887,0,0,1,.4.269,2.1,2.1,0,0,1-.025.579c-.029.176-.041.306-.055.383l.384.152c.021-.066.07-.221.138-.46ZM33.56,43.54c.3-.471.566-.873.808-1.2l.575-.748a6.143,6.143,0,0,0,.516-.812,4.555,4.555,0,0,0,.347-.959,2.408,2.408,0,0,0-.029-.854,1.548,1.548,0,0,0-.249-.6,2.789,2.789,0,0,0-.541-.569,1.664,1.664,0,0,0-1.177-.3,2.357,2.357,0,0,0-1.326.636,6,6,0,0,0,.125-.807,1.621,1.621,0,0,0-.135-.662,1.372,1.372,0,0,0-.414-.483,1.635,1.635,0,0,0-.519-.262,1.462,1.462,0,0,0-.584-.044,1.848,1.848,0,0,0-.584.19,3.422,3.422,0,0,0-.419.262,3.317,3.317,0,0,0-.648.676l-.211.292c-.1.125-.155.207-.181.241a.444.444,0,0,0-.077.11l-.125.18-1.035,1.511-.713,1.031.337.226.382-.41a.722.722,0,0,1,.249-.231.111.111,0,0,1,.082-.014,2.67,2.67,0,0,1,.453.259c.855.594,1.389.961,1.579,1.11l1.94,1.388a8.372,8.372,0,0,1,.721.585.983.983,0,0,1,.143.224,2.165,2.165,0,0,1-.229.557c-.054.113-.1.217-.138.3l.355.268c.394-.589.64-.956.722-1.082Zm-2.643-3.512a3.476,3.476,0,0,0,.333-.409,2.244,2.244,0,0,0,.5-1.215,1.214,1.214,0,0,0-.616-.975,1.154,1.154,0,0,0-.96-.2,1.829,1.829,0,0,0-1.016.782,6.03,6.03,0,0,0-.314.544c.071.056.17.117.3.212.269.175.637.422,1.09.761l.374.288C30.681,39.861,30.776,39.928,30.918,40.028Zm2.934,2.045a1.714,1.714,0,0,0,.518-.464,2.336,2.336,0,0,0,.458-.953,1.184,1.184,0,0,0-.09-.8,1.836,1.836,0,0,0-.6-.663,1.606,1.606,0,0,0-.821-.342,1.419,1.419,0,0,0-.885.195,3.606,3.606,0,0,0-.818.873,1.621,1.621,0,0,0-.249.424l.557.4.67.5,1.049.742a.551.551,0,0,0,.207.081Zm5.8-13.927q.6-.239.783-.125a3.586,3.586,0,0,1,.525.943L42.039,31.4a7.607,7.607,0,0,0,.559,1.055,2.211,2.211,0,0,0,.8.722,2.175,2.175,0,0,0,1.106.173,4.055,4.055,0,0,0,1.457-.39,4.558,4.558,0,0,0,1.145-.7,2.868,2.868,0,0,0,.695-.789,2.139,2.139,0,0,0,.277-.812,1.837,1.837,0,0,0-.042-.643,10.009,10.009,0,0,0-.554-1.43l-.513-1.018c-.117-.249-.238-.5-.355-.735a1.052,1.052,0,0,1-.1-.209,2.963,2.963,0,0,1-.125-.283c-.092-.207-.17-.353-.215-.436a1.761,1.761,0,0,1-.137-.263.242.242,0,0,1-.016-.217,1.771,1.771,0,0,1,.35-.241,2.057,2.057,0,0,0,.374-.239A.374.374,0,0,0,46.7,24.8a.8.8,0,0,0-.125-.219l-.09.025a9,9,0,0,1-.932.465l-1,.392-.405.176.163.4.075-.016.473-.223a.639.639,0,0,1,.451,0c.09.035.181.156.287.357l.142.249c.555,1,1.013,1.9,1.372,2.729a4.436,4.436,0,0,1,.374,1.094,2.5,2.5,0,0,1-.027.641,1.036,1.036,0,0,1-.18.429,1.642,1.642,0,0,1-.363.446,4,4,0,0,1-.862.532,2.011,2.011,0,0,1-.938.161,1.3,1.3,0,0,1-.652-.219A2.172,2.172,0,0,1,43.8,31.4l-.633-1.247-.374-.9-.207-.4-.2-.484-.091-.185c-.035-.065-.076-.15-.125-.258a2.074,2.074,0,0,1-.217-.637.555.555,0,0,1,.338-.283,4.256,4.256,0,0,0,.572-.3l-.01-.039-.145-.3-.035-.067a3.306,3.306,0,0,1-.407.187c-.2.094-.428.206-.682.338s-.526.249-.8.367c-.081.036-.35.146-.811.319-.186.077-.374.152-.546.227-.062.034-.125.061-.191.1l.2.4A1,1,0,0,0,39.653,28.146ZM51.306,24.1a1.3,1.3,0,0,1,.445.281.5.5,0,0,1,.135.223A3.05,3.05,0,0,1,52,25.5l.062,1.139.056,1.813v.322c0,.125.015.489,0,1.085,0,.2-.016.329-.082.374a1.333,1.333,0,0,1-.551.091h-.221a1.61,1.61,0,0,0-.259.031v.206c0,.067.016.14.016.228a.958.958,0,0,0,.2.016l.322-.03c.2-.02.595-.051,1.188-.081.636.042,1.02.061,1.136.051l.221-.015-.041-.469a1.122,1.122,0,0,0-.148-.032,4.521,4.521,0,0,1-.953-.086c-.034-.076-.059-.135-.076-.168a1.646,1.646,0,0,1-.026-.208c-.047-.357-.081-.685-.1-.99l-.062-.728v-.4c0-.135,0-.259-.012-.387l-.131-2.079.939.794c.388.323.817.7,1.3,1.136l.722.7.979.918,1.4,1.3.7.668.637-.046-.015-.3c0-.03-.011-.125-.031-.272l.01-.3-.03-.3-.024-.685a2.28,2.28,0,0,0-.017-.3l-.125-1.962c0-.125-.021-.241-.026-.337-.04-.316-.067-.748-.091-1.286-.009-.249-.021-.4-.021-.471-.017-.138-.024-.213-.024-.237A.343.343,0,0,1,58.857,24a2.85,2.85,0,0,1,.283-.214,2.407,2.407,0,0,1,.41-.125.829.829,0,0,0,.249-.112l-.021-.364c-.072,0-.142.006-.233.014l-1.212.08-1.1.067-.133.025v.33a1.746,1.746,0,0,0,.458.115,1.029,1.029,0,0,1,.552.17c.055.049.082.192.092.435,0,.08.042.359.1.842a7.615,7.615,0,0,1,.062.839c.024.309.045.576.069.8s.049.526.074.907l.042.647v.14c-2.349-2.187-3.711-3.454-4.089-3.822s-.863-.8-1.462-1.306h-.175c-.04,0-.141.009-.345.026s-.311.02-.342.026A.887.887,0,0,1,52,23.505c-.223,0-.342.006-.4.006-.08,0-.249.011-.465.032h-.158l-.489.025.041.392a4.151,4.151,0,0,1,.768.136ZM61.749,31c.374.059.657.107.854.151l.961.249c.421.143.651.238.7.257a.954.954,0,0,0,.137.05c.012,0,.1.015.207.04a.622.622,0,0,1,.1.019c.027-.081.041-.14.06-.185a2.149,2.149,0,0,0,.039-.276c-.175-.075-.286-.115-.312-.135a4.115,4.115,0,0,1-.591-.249.374.374,0,0,1,.02-.125l.051-.212.262-1.087.195-.723.354-1.439c.077-.333.2-.8.368-1.405.014-.1.045-.227.077-.392a2.4,2.4,0,0,1,.125-.4c.125,0,.3-.019.5-.011s.374-.007.537-.015c.026-.1.049-.182.067-.249a1.058,1.058,0,0,0,.036-.17c-.072-.017-.236-.045-.5-.091-.481-.094-.828-.16-1.039-.213l-.362-.1-1.531-.456-.1.49a1.019,1.019,0,0,0,.185.062,2.245,2.245,0,0,1,.7.316,1.206,1.206,0,0,1,0,.181l-.057.239-.131.624-.087.286-.178.725c0,.022-.1.389-.306,1.1l-.075.294-.312,1.235-.16.648a1.051,1.051,0,0,1-.213.438,2.17,2.17,0,0,1-.585.057h-.374l-.1.392Zm7.2-5.127a1.823,1.823,0,0,1,.392.314.636.636,0,0,1,.1.279c0,.057-.012.473-.059,1.237l-.151,1.647-.186,2.594c-.086.748-.133,1.173-.158,1.3s-.035.238-.049.358a2.119,2.119,0,0,0,.266.146,1.321,1.321,0,0,0,.249.125c.166-.14.445-.405.839-.793l.1-.062c.309-.273.5-.429.544-.471.185-.17.374-.323.525-.461a5.881,5.881,0,0,0,.466-.4l1.508-1.3A14.235,14.235,0,0,1,74.6,29.347a.748.748,0,0,1,.229-.094,5.3,5.3,0,0,1,.914.09.907.907,0,0,0,.092-.183l.095-.16c-.125-.057-.3-.125-.5-.212a6.135,6.135,0,0,1-.725-.33c-.271-.148-.534-.3-.8-.483s-.436-.282-.49-.311a1.9,1.9,0,0,0-.141.218.624.624,0,0,0-.049.175c.049.039.117.076.185.125a1.028,1.028,0,0,1,.167.125,1.079,1.079,0,0,1,.394.389.211.211,0,0,1,.016.216,1.289,1.289,0,0,1-.286.329c-.136.125-.327.311-.575.55a2.237,2.237,0,0,1-.171.177l-.332.273-1.443,1.318-.67.555c.035-.268.061-.555.08-.865l.125-1.574A13.541,13.541,0,0,1,70.869,28l.075-.513a.217.217,0,0,1,.045-.116.192.192,0,0,1,.114-.1.754.754,0,0,1,.413.017c.059.012.269.09.616.221.017-.027.08-.17.2-.409l-.355-.193c-.125-.041-.3-.112-.521-.212-.311-.137-.513-.236-.609-.292a16.057,16.057,0,0,1-1.568-.917c-.04-.019-.138-.084-.3-.177l-.232.43Zm8.986,5.238c.064.069.1.138.162.192a3.49,3.49,0,0,1,.374.5c.032.052.071.106.089.14a.26.26,0,0,1,.056.178.992.992,0,0,0-.069.089l-.469.509-.456.438-.624.642-.464.433L75.02,35.7l-.116.116c-.117.111-.195.19-.232.232a1.189,1.189,0,0,1-.339.241,3.279,3.279,0,0,1-.683-.454,3.317,3.317,0,0,0-.347-.263l-.278.277.49.469.161.167c.488.445.873.826,1.193,1.152.624.643,1.15,1.2,1.568,1.684.607.681.989,1.09,1.122,1.247.1.1.249.236.415.4L78.5,40.6l.9-.59.153-.09a1.527,1.527,0,0,1,.188-.148,1.666,1.666,0,0,0-.136-.131,1.62,1.62,0,0,0-.211-.2,2.833,2.833,0,0,1-1.188.278,1.372,1.372,0,0,1-.735-.224,6.761,6.761,0,0,1-1.005-.873,4.561,4.561,0,0,1-.9-1.094.309.309,0,0,1,.1-.32l.873-.829c.222-.207.486-.46.8-.771a1.149,1.149,0,0,1,.138-.132c.223.181.526.478.92.873a4.747,4.747,0,0,1,.55.624.4.4,0,0,1,.045.264,2.262,2.262,0,0,1-.334.6,3.381,3.381,0,0,0-.2.308l.278.292.086-.081c.081-.08.2-.2.339-.355.158-.163.267-.286.339-.35s.125-.112.2-.18.269-.249.549-.521c.125-.125.306-.3.531-.547l-.233-.224-.062-.056a5.445,5.445,0,0,1-.725.431.546.546,0,0,1-.3.042,1.311,1.311,0,0,1-.445-.307c-.217-.188-.559-.516-1.013-.991-.049-.051-.1-.115-.157-.188l.5-.486.681-.645c.456-.448.722-.7.786-.769.256.249.544.539.862.873.279.282.53.564.748.832.125.158.2.242.221.269a1.475,1.475,0,0,1,.221.291,2.578,2.578,0,0,1-.125.614l-.131.448c-.061.147-.111.249-.143.332a1.915,1.915,0,0,0,.125.148l.168.157c.035-.034.072-.056.077-.067L82,36.935l.843-.808a.387.387,0,0,0,.133-.273,5.886,5.886,0,0,0-.634-.783l-.711-.725c-.468-.5-1-1.014-1.609-1.594-.4-.388-.641-.624-.733-.725a7.2,7.2,0,0,1-.673-.781c-.086-.125-.212-.268-.35-.438Zm1.317,11.186a1.622,1.622,0,0,0-.17.094l.125.217a5.49,5.49,0,0,0,.3.557l.4.673c.019.036.05.1.1.188.064.131.233.574.524,1.326l.107.207c.007.02.026.057.059.125a2.824,2.824,0,0,0,.392-.162,4.961,4.961,0,0,0-.147-.772,1.389,1.389,0,0,1-.051-.433l.968-.425,1.1-.572a3.171,3.171,0,0,1,.353-.152c.081.155.141.272.181.338a1.1,1.1,0,0,1,.147.567,2.309,2.309,0,0,1-.385.624c-.535.708-.93,1.21-1.183,1.515-.092.125-.237.311-.413.575L81.4,47.1a2.074,2.074,0,0,0,.125.217c.118.193.181.3.2.338l.249.509c.074.156.133.294.18.41l.095.2.092.277.065.1.054.133a.46.46,0,0,0,.125-.051.514.514,0,0,0,.133-.1,1.612,1.612,0,0,0,0-.428,1.76,1.76,0,0,1,0-.478,4.8,4.8,0,0,1,.41-.69l.919-1.444c.095-.147.216-.348.339-.584.067-.113.125-.206.181-.283a2.12,2.12,0,0,0,1.114.7,1.607,1.607,0,0,0,1.072-.125,1.75,1.75,0,0,0,.914-1.2,2.64,2.64,0,0,0-.274-1.9,13.443,13.443,0,0,0-.665-1.218l-.338-.61-.14-.262c-.015-.02-.065-.157-.171-.408-.125-.231-.2-.389-.234-.459a2.9,2.9,0,0,0-.263-.451l-.064.01-.3.152c.031.1.108.291.216.572l.081.32c-.188.106-.631.333-1.324.675-.322.156-.657.317-1.028.486l-.278.125-.47.241-.616.279-1.11.552c-.282.133-.44.211-.489.231a1.087,1.087,0,0,1-.166.034,2.705,2.705,0,0,1-.334-.41,1.073,1.073,0,0,0-.3-.334.873.873,0,0,0-.156.057Zm4.524.624c.065.17.125.282.155.358a2.039,2.039,0,0,0,.9,1.069,1.114,1.114,0,0,0,1-.044,2.063,2.063,0,0,0,.541-.374,1.19,1.19,0,0,0,.318-.422,1.5,1.5,0,0,0,.062-.635,2.869,2.869,0,0,0-.278-.748,1.9,1.9,0,0,0-.224-.382l-.094.034-.665.339-.428.187-.546.277c-.156.064-.353.16-.606.271Zm6.572,9.115a4.292,4.292,0,0,0-.06-.8A2.572,2.572,0,0,0,89.31,49.5a2.045,2.045,0,0,0-1.6-.335,2.281,2.281,0,0,0-.865.4,1.978,1.978,0,0,0-.634.767,6.016,6.016,0,0,0-.363,1.526,4.6,4.6,0,0,1-.328,1.356,1.076,1.076,0,0,1-.682.524,1.13,1.13,0,0,1-.663-.1,1.192,1.192,0,0,1-.521-.491,2.054,2.054,0,0,1-.264-.635,1.694,1.694,0,0,1-.006-.638,1.314,1.314,0,0,1,.171-.546,2.237,2.237,0,0,1,.374-.464,7.315,7.315,0,0,1,.68-.485l-.108-.5-.211.039c-.1.019-.261.056-.5.1-.454.108-.7.165-.748.167l-.06.017c-.049.022-.085.045-.09.07a1.2,1.2,0,0,0-.071.374l-.07.7a5.208,5.208,0,0,0,.07.943,3.421,3.421,0,0,0,.288.935,2.759,2.759,0,0,0,.461.655,3.5,3.5,0,0,0,.491.441,1.557,1.557,0,0,0,.566.237,2.9,2.9,0,0,0,1.058-.007,2.318,2.318,0,0,0,.763-.276,2.23,2.23,0,0,0,.57-.572,2.354,2.354,0,0,0,.335-.821,5.207,5.207,0,0,0,.15-.873,3.234,3.234,0,0,1,.365-1.435,1.04,1.04,0,0,1,.624-.446.925.925,0,0,1,.756.178,1.3,1.3,0,0,1,.456.784,1.343,1.343,0,0,1-.261,1.075,2.939,2.939,0,0,1-.885.673V52.9l.057.405.022.052a1.121,1.121,0,0,0,.213-.012,8.376,8.376,0,0,0,.873-.238c.242-.085.426-.153.546-.211a7.035,7.035,0,0,0,.074-.879Zm-6.9,4.547c.035.374.044.67.044.864l-.032,1c-.052.444-.08.7-.084.748a1.161,1.161,0,0,0-.025.14c0,.019,0,.09.01.214v.1c.087.009.148.019.19.019.077,0,.176-.01.279-.019.035-.2.052-.316.052-.345a5.643,5.643,0,0,1,.113-.624c.057-.006.1-.011.125-.011h.217l1.122.016.748.025,1.485.016c.337.007.822.02,1.457.046a3.036,3.036,0,0,1,.384-.009,1.8,1.8,0,0,1,.425.037,4.109,4.109,0,0,1,.143.478,2.816,2.816,0,0,0,.135.513c.095.01.176.02.239.02h.178c0-.072-.009-.249-.02-.516-.029-.5-.029-.842-.029-1.058a3.246,3.246,0,0,1,.022-.374l.09-1.6h-.49a.9.9,0,0,0-.022.2,2.158,2.158,0,0,1-.142.748,1.263,1.263,0,0,1-.187.036h-.238l-.638.011-.294-.021h-.748c-.021,0-.4-.024-1.14-.061H86.5l-1.278-.039h-.658a.97.97,0,0,1-.476-.108,2.272,2.272,0,0,1-.178-.552c-.04-.176-.067-.293-.089-.374l-.409-.006a3.744,3.744,0,0,0,.025.47Zm6.839,6.285a11.153,11.153,0,0,1-1.294-.843,1.264,1.264,0,0,0-.291.268c-.01.049.03.125.111.249a3.456,3.456,0,0,1,.552.89,1.782,1.782,0,0,1-.085.706,9.774,9.774,0,0,1-.325,1.087.09.09,0,0,1-.044.065.1.1,0,0,1-.085.016,9.21,9.21,0,0,1-1.034-.244l-2.054-.528c-.949-.249-1.627-.444-2.064-.585a.817.817,0,0,1-.249-.138,5.537,5.537,0,0,1-.032-.849.8.8,0,0,0-.1-.509l-.047-.009-.125-.031c-.027,0-.072-.019-.125-.029-.017.066-.049.2-.085.408-.1.537-.166.867-.188.975-.185.68-.319,1.152-.419,1.4a8.786,8.786,0,0,0-.3.94,1.628,1.628,0,0,1-.05.2c.062.025.1.044.14.054a1.992,1.992,0,0,0,.238.029,2.082,2.082,0,0,0,.166-.262,2.269,2.269,0,0,0,.188-.374,1.841,1.841,0,0,1,.162-.3,1.517,1.517,0,0,1,.58.082l.71.19,1.718.446,1.585.426.738.2a1.92,1.92,0,0,1,.337.115,3.867,3.867,0,0,1-.084.387,10.725,10.725,0,0,1-.334,1.132.316.316,0,0,1-.125.132,3.011,3.011,0,0,1-.5.091,3.415,3.415,0,0,0-.687.152,1.956,1.956,0,0,0-.025.405A1.964,1.964,0,0,0,87,69.3l.274.075.476.133c.513.125.888.221,1.13.284.022-.069.034-.125.049-.16L89,69.4a1.024,1.024,0,0,0-.133-.095,1.091,1.091,0,0,1-.219-.217l.04-.337.448-1.676.329-1.22.178-.663.02-.1c.057-.218.125-.465.2-.748.112-.444.185-.688.2-.736a2.564,2.564,0,0,1,.413-.14.374.374,0,0,0,.107-.03l.09-.334C90.595,63.054,90.465,62.975,90.278,62.864Zm-3.055,9.488c-.021-.019-.055-.039-.067-.049a.542.542,0,0,0-.085-.029c-.222.223-.342.339-.374.367a.763.763,0,0,1-.212.1c-.344.024-.539.041-.575.041l-.974-.017-2,.014a2.273,2.273,0,0,0-.333.021,1.378,1.378,0,0,1-.882-.125l-.109-.067c-.03-.021-.133-.084-.308-.195s-.5-.327-.985-.632l-.271-.18c.011-.04.017-.086.029-.137l.385-.981c-.064-.044-.111-.076-.147-.1a.8.8,0,0,0-.15-.086l-.211.32a2.281,2.281,0,0,0-.2.374.844.844,0,0,1-.118.223l-.249.39-.339.531-.237.337-.374.475-.374.536a1.512,1.512,0,0,0,.125.09.542.542,0,0,0,.108.08.108.108,0,0,0,.116.02,2.044,2.044,0,0,0,.4-.453c.125-.137.2-.231.249-.269a.311.311,0,0,1,.084-.017l1.215.767a1.733,1.733,0,0,1,.241.172l.125.081.4.269.145.1a.636.636,0,0,1,.116.181c.113.216.3.681.564,1.372l.516,1.211a3.664,3.664,0,0,1,.4,1.072,1.707,1.707,0,0,1-.18.652l-.017.072.347.227a.891.891,0,0,1,.076-.136c.1-.172.165-.308.219-.423l.049-.079.146-.228a.4.4,0,0,1,.09-.1l.673-.937a3.317,3.317,0,0,0-.365-.192c-.03.03-.071.074-.125.131a1.371,1.371,0,0,1-.152.161,1.006,1.006,0,0,1-.148.191.431.431,0,0,1-.125.079.622.622,0,0,1-.1-.037.724.724,0,0,1-.146-.216l-.445-.863,0-.051c-.226-.51-.383-.915-.489-1.215l-.374-.925a2.382,2.382,0,0,1,.338-.014h.405a.876.876,0,0,1,.116,0c.36.014.559.019.61.014h.59a8.174,8.174,0,0,1,1.47.019l.06.051v.039c-.069.151-.118.259-.158.35l-.095.228a1.292,1.292,0,0,0-.1.3l.233.16a.612.612,0,0,0,.112.035l.024-.035a.48.48,0,0,0,.034-.079,6.851,6.851,0,0,1,.43-.766c.16-.232.364-.532.658-.907a4.389,4.389,0,0,1,.289-.362l.025-.057c.019-.029.059-.076.118-.148l.04-.04a2.777,2.777,0,0,0,.344-.612A1.427,1.427,0,0,1,87.223,72.352Z" transform="translate(-19.694 -20.289)" fill="#fff" fill-rule="evenodd"/>
    </g>
    <g id="Group_1474" data-name="Group 1474" transform="translate(1.328 100.689)">
      <path id="Path_97" data-name="Path 97" d="M143.127,0H0" transform="translate(0 23.851)" fill="#231f20" stroke="#5e2568" stroke-width="0.6"/>
      <g id="Group_1473" data-name="Group 1473" transform="translate(0.565 0)">
        <path id="Path_44" data-name="Path 44" d="M614.507,148.48c.517,0,1.481.064,3.027.064,1.588,0,2.433-.064,3-.064a1.067,1.067,0,0,1-.021.687,7.058,7.058,0,0,0-1.009.193c-.429.15-.537.386-.558,1.052-.021.944-.021,2.189-.021,3.67a.265.265,0,0,0,.107.172,27.257,27.257,0,0,0,3.069.043c1.674,0,2.426,0,2.683-.021.043-.021.129-.086.129-.143,0-1.073,0-2.962-.043-4.014a.706.706,0,0,0-.451-.708,4.538,4.538,0,0,0-1.18-.236.773.773,0,0,1,0-.687c.773,0,1.588.064,3.069.064,1.545,0,2.4-.064,2.919-.064a.85.85,0,0,1,0,.687,4.975,4.975,0,0,0-1.052.215c-.408.15-.537.365-.558,1.052-.043,1.2-.043,2.232-.043,4.851,0,1.567,0,3.477.043,4.357.043.58.129.9.515,1.03a6.2,6.2,0,0,0,1.352.258,1.023,1.023,0,0,1-.086.715c-.579,0-1.7-.064-3.091-.064-1.31,0-2.576.064-3.07.064a.913.913,0,0,1-.022-.715,5.364,5.364,0,0,0,1.095-.193c.386-.107.558-.365.58-1.03.021-.88.021-2.662.021-4.057a.143.143,0,0,0-.129-.15c-.408-.021-1.738-.021-2.747-.021-2.211.021-2.919.021-3.048.064a.361.361,0,0,0-.064.129c0,1.288,0,3.069.021,3.864.021.665.107,1.009.622,1.159a8.256,8.256,0,0,0,1.223.236,1.008,1.008,0,0,1-.086.715c-.408,0-1.417-.064-3.2-.064-1.524,0-2.6.064-3.048.064a1.172,1.172,0,0,1,0-.715c.495-.064.73-.107,1.032-.172.572-.15.707-.494.75-1.438.021-.451.043-2.383.043-4.271,0-2.082-.022-4.1-.043-4.658-.043-.665-.143-.9-.572-1.009a6.914,6.914,0,0,0-1.179-.215A1.047,1.047,0,0,1,614.507,148.48Z" transform="translate(-614.408 -147.214)" fill="#5e2568"/>
        <path id="Path_45" data-name="Path 45" d="M729.811,180.275a1.823,1.823,0,0,0-1.524-.708,1.606,1.606,0,0,0-.987.258,6.653,6.653,0,0,0-.773,1.374c-.086.086-.751-.236-.73-.386a4.382,4.382,0,0,1,.472-1.352,7.25,7.25,0,0,1,3.177-1.309,2.784,2.784,0,0,1,2.4,1.245,3.8,3.8,0,0,1,.535,2.168c0,1.03-.063,2.511-.063,3.37,0,.429.143.837.664.837a2.146,2.146,0,0,0,.73-.107,2.451,2.451,0,0,1-.107.794,3.288,3.288,0,0,1-2.147.794,1.219,1.219,0,0,1-1.245-.622l-.129-.408c0-.043-.065-.043-.086-.043a5.815,5.815,0,0,1-2.447,1.073,1.85,1.85,0,0,1-1.245-.515,2.849,2.849,0,0,1-.816-2.061,3.947,3.947,0,0,1,.365-1.266c.665-.365,3.291-.987,4.078-1.352a.382.382,0,0,0,.172-.236,2.349,2.349,0,0,0,.021-.386A2.063,2.063,0,0,0,729.811,180.275Zm.215,2.468a15.532,15.532,0,0,0-2.061.794,1.756,1.756,0,0,0-.193.708,1.437,1.437,0,0,0,1.438,1.524,1.276,1.276,0,0,0,.687-.193.476.476,0,0,0,.172-.429c.043-.6.043-1.932.043-2.3,0-.017-.064-.1-.086-.1Z" transform="translate(-709.599 -172.638)" fill="#5e2568"/>
        <path id="Path_46" data-name="Path 46" d="M792.65,146.22a4.241,4.241,0,0,1,.987,2.79,4.681,4.681,0,0,1-1.825,3.928,7.324,7.324,0,0,1-3.476,1.309,7.931,7.931,0,0,1-2.039-.279,2.345,2.345,0,0,0-1.224,0c-.064.021-.193-.107-.193-.15.064-.73.107-2.361.107-5.388-.021-3.134-.021-5.9-.107-6.654-.043-.343-.107-.494-.472-.6a6.906,6.906,0,0,0-.923-.15.94.94,0,0,1,.043-.644,17.88,17.88,0,0,0,3.971-.751c.064.021.143.286.129.386-.172.3-.236.622-.236,3.177v2.876c.021.064.064.086.107.064a7.384,7.384,0,0,1,2.747-.987A3.068,3.068,0,0,1,792.65,146.22Zm-5.086.6a.407.407,0,0,0-.15.3c-.043.923-.043,3.413.021,4.529a1.271,1.271,0,0,0,.365.966,2.225,2.225,0,0,0,1.5.558,1.415,1.415,0,0,0,1.2-.6,4.184,4.184,0,0,0,.664-2.468,4.267,4.267,0,0,0-.687-2.6,2.09,2.09,0,0,0-1.887-.944A2.575,2.575,0,0,0,787.564,146.821Z" transform="translate(-759.26 -139.63)" fill="#5e2568"/>
        <path id="Path_47" data-name="Path 47" d="M867.84,164.08c-.429,0-1.18-.064-2.447-.064-1.095,0-1.91.064-2.383.064a1.165,1.165,0,0,1,0-.715,3.808,3.808,0,0,0,.837-.172c.279-.107.343-.3.365-.816s.043-1.867.043-2.941c0-.751-.022-1.588-.022-1.975a.75.75,0,0,0-.172-.515,2.065,2.065,0,0,0-.9-.494.889.889,0,0,1,.065-.622,13.246,13.246,0,0,0,3.456-.715c0,.9-.022,2.447-.022,3.692,0,1.116,0,2.554.022,3.542,0,.558.129.73.408.837a4.934,4.934,0,0,0,.837.172A1.044,1.044,0,0,1,867.84,164.08Zm-1.731-10.56a2.542,2.542,0,0,1-1.4.107,1.266,1.266,0,0,1-.665-.923,1.526,1.526,0,0,1,.129-.923,2.47,2.47,0,0,1,1.417-.451,1.208,1.208,0,0,1,.859.258,1.4,1.4,0,0,1,.193.73A1.654,1.654,0,0,1,866.109,153.519Z" transform="translate(-827.389 -149.656)" fill="#5e2568"/>
        <path id="Path_48" data-name="Path 48" d="M909.491,146.22a4.241,4.241,0,0,1,.987,2.79,4.681,4.681,0,0,1-1.824,3.928,7.324,7.324,0,0,1-3.477,1.309,7.93,7.93,0,0,1-2.039-.279,2.345,2.345,0,0,0-1.223,0c-.064.021-.193-.107-.193-.15.064-.73.107-2.361.107-5.388-.021-3.134-.021-5.9-.107-6.654-.043-.343-.107-.494-.472-.6a6.909,6.909,0,0,0-.923-.15.941.941,0,0,1,.043-.644,17.884,17.884,0,0,0,3.971-.751c.064.021.143.286.128.386-.172.3-.236.622-.236,3.177v2.876c.021.064.064.086.108.064a7.384,7.384,0,0,1,2.747-.987A3.071,3.071,0,0,1,909.491,146.22Zm-5.087.6a.407.407,0,0,0-.143.3c-.043.923-.043,3.413.021,4.529a1.272,1.272,0,0,0,.365.966,2.225,2.225,0,0,0,1.5.558,1.415,1.415,0,0,0,1.2-.6,4.175,4.175,0,0,0,.665-2.468,4.326,4.326,0,0,0-.687-2.6,2.093,2.093,0,0,0-1.889-.944A2.575,2.575,0,0,0,904.4,146.821Z" transform="translate(-859.38 -139.63)" fill="#5e2568"/>
        <path id="Path_49" data-name="Path 49" d="M1006.94,148.48c.666,0,1.91.064,3.112.064,1.266,0,2.34-.064,3.091-.064a.947.947,0,0,1,0,.687c-.386.064-.73.129-.987.193-.515.107-.687.451-.716,1.145-.043,1.717,0,3.992,0,5.13a13.018,13.018,0,0,0,.258,2.533c.3,1.4,1.417,2.383,3.5,2.383,1.545,0,3.177-.515,3.391-3.585.107-1.61.128-4.679.042-6.182-.042-.9-.236-1.266-.943-1.4a9.635,9.635,0,0,0-1.2-.215,1.08,1.08,0,0,1,.021-.687c.664,0,1.566.064,2.639.064,1.4,0,2.039-.064,2.49-.064a.849.849,0,0,1,0,.687,8.2,8.2,0,0,0-.9.193c-.558.15-.73.494-.773,1.545-.064,1.932-.107,4.436-.258,5.9-.322,3.885-2.553,5.151-5.515,5.151-3.72,0-5.066-1.782-5.323-3.949-.193-1.5-.15-5.495-.172-7.555-.022-.558-.172-.923-.665-1.073a6.455,6.455,0,0,0-1.116-.215A1.141,1.141,0,0,1,1006.94,148.48Z" transform="translate(-950.712 -147.214)" fill="#5e2568"/>
        <path id="Path_50" data-name="Path 50" d="M1110.634,185.736c.3-.086.407-.386.45-.816.022-.644.043-2.29.043-3.37,0-.622-.021-1.417-.043-1.7-.043-.215-.214-.494-1.052-.794a1.274,1.274,0,0,1,.107-.58,11.338,11.338,0,0,0,3.291-.9.217.217,0,0,1,.086.143c0,.236-.021.837-.021,1.2a.076.076,0,0,0,.037.06.078.078,0,0,0,.07,0,5.207,5.207,0,0,1,2.81-1.331,2.443,2.443,0,0,1,2.168,1.138,4.619,4.619,0,0,1,.558,2.533c0,1.266,0,3.134.022,3.842a.444.444,0,0,0,.193.365,2.428,2.428,0,0,0,1.051.322,1.187,1.187,0,0,1-.107.715c-.322,0-.966-.064-2.34-.064-1.116,0-1.63.043-2.289.064a1.586,1.586,0,0,1,0-.715,5.807,5.807,0,0,0,.687-.129c.257-.107.342-.3.365-.715a37.98,37.98,0,0,0-.087-4.4,1.64,1.64,0,0,0-.621-1.073,1.554,1.554,0,0,0-1.052-.322,2.376,2.376,0,0,0-1.245.408.572.572,0,0,0-.193.472c.021,1.438.021,3.735.043,4.872.022.537.143.665.451.751a3.523,3.523,0,0,0,.715.129,1.374,1.374,0,0,1-.064.715c-.666-.022-1.374-.064-2.4-.064-1.309,0-1.91.043-2.318.064a1.328,1.328,0,0,1,0-.715A4.112,4.112,0,0,0,1110.634,185.736Z" transform="translate(-1038.994 -172.149)" fill="#5e2568"/>
        <path id="Path_51" data-name="Path 51" d="M1192.884,164.08c-.429,0-1.18-.064-2.447-.064-1.095,0-1.91.064-2.383.064a1.174,1.174,0,0,1,0-.715,3.807,3.807,0,0,0,.837-.172c.286-.107.343-.3.365-.816s.043-1.867.043-2.941c0-.751-.022-1.588-.022-1.975a.747.747,0,0,0-.172-.515,2.063,2.063,0,0,0-.9-.494.89.89,0,0,1,.064-.622,13.245,13.245,0,0,0,3.456-.715c0,.9-.021,2.447-.021,3.692,0,1.116,0,2.554.021,3.542,0,.558.129.73.408.837a4.932,4.932,0,0,0,.837.172A1.04,1.04,0,0,1,1192.884,164.08Zm-1.737-10.56a2.543,2.543,0,0,1-1.4.107,1.265,1.265,0,0,1-.665-.923,1.527,1.527,0,0,1,.129-.923,2.47,2.47,0,0,1,1.417-.451,1.207,1.207,0,0,1,.858.258,1.4,1.4,0,0,1,.193.73A1.655,1.655,0,0,1,1191.147,153.519Z" transform="translate(-1105.92 -149.656)" fill="#5e2568"/>
        <path id="Path_52" data-name="Path 52" d="M1223.714,179.83c.623.021,1.588.064,2.469.064,1.052,0,1.781-.043,2.253-.064a.845.845,0,0,1,.043.687,6.7,6.7,0,0,0-.773.193.232.232,0,0,0-.129.286c.258.837,1.374,3.735,1.739,4.615.021.043.064.021.086,0,.408-1.009,1.245-3.091,1.524-4.035.193-.572.043-.751-.193-.837a4.531,4.531,0,0,0-.966-.215,1.045,1.045,0,0,1,.086-.687c.3,0,1.145.064,1.932.064.687,0,1.481-.043,1.889-.064a.954.954,0,0,1-.021.687,5.619,5.619,0,0,0-.751.172c-.344.129-.573.429-.859,1.03-.558,1.159-1.33,2.941-2.06,4.765-.344.9-.558,1.5-.73,2.018a7.343,7.343,0,0,0-1.374.021c-.172-.558-.408-1.181-.665-1.867-.537-1.46-1.224-3.134-1.631-4.143-.622-1.481-.73-1.653-1.223-1.825a5.345,5.345,0,0,0-.751-.172A1.421,1.421,0,0,1,1223.714,179.83Z" transform="translate(-1136.429 -174.078)" fill="#5e2568"/>
        <path id="Path_53" data-name="Path 53" d="M1303.571,184.77a2.5,2.5,0,0,1-.086.665,5.251,5.251,0,0,1-3.778,1.846,3.794,3.794,0,0,1-2.79-1.03,4.862,4.862,0,0,1-1.266-3.5,4.468,4.468,0,0,1,1.974-3.864,5.2,5.2,0,0,1,2.49-.708,3.292,3.292,0,0,1,3.263,3.091c.021.107.193.215.343.258a1.278,1.278,0,0,1-.143.558,38.673,38.673,0,0,1-5.409.494c-.064,0-.107.129-.107.215a3.077,3.077,0,0,0,.837,1.889,2.766,2.766,0,0,0,2.125.816,3.806,3.806,0,0,0,2.468-.859C1303.5,184.662,1303.571,184.705,1303.571,184.77Zm-5.538-3.263c0,.021.043.129.129.129a21.809,21.809,0,0,0,2.719-.086.237.237,0,0,0,.143-.193c-.107-1.266-.644-2.34-1.574-2.34-.817,0-1.4,1.03-1.418,2.49Z" transform="translate(-1198.168 -172.664)" fill="#5e2568"/>
        <path id="Path_54" data-name="Path 54" d="M1364.977,178.245a1.454,1.454,0,0,1,0,.429,7.3,7.3,0,0,1-.859,1.76.387.387,0,0,1-.257.064,2.473,2.473,0,0,0-1.61-.837,1.144,1.144,0,0,0-.794.451.853.853,0,0,0-.129.451c-.022,1.223,0,3.928.021,4.25.043.558.108.751.536.859a6.16,6.16,0,0,0,1.181.193,1.211,1.211,0,0,1-.107.715c-.387,0-1.546-.064-2.9-.064-.9,0-1.86.064-2.361.064a1.164,1.164,0,0,1,0-.715,2.766,2.766,0,0,0,.837-.172c.193-.064.322-.236.344-.665.042-.386.064-2,.064-3.391,0-.751,0-1.4-.043-1.717-.022-.286-.143-.558-1.116-.9a1.521,1.521,0,0,1,.107-.558,10.5,10.5,0,0,0,3.284-.88.2.2,0,0,1,.151.107c-.022.279-.086,1.309-.086,1.653,0,.064.086.064.129.043a10.11,10.11,0,0,1,1.266-1.266,2.049,2.049,0,0,1,1.181-.451A1.273,1.273,0,0,1,1364.977,178.245Z" transform="translate(-1251.291 -172.149)" fill="#5e2568"/>
        <path id="Path_55" data-name="Path 55" d="M1419.614,180.885a1.172,1.172,0,0,1-.665.043c-.172-.9-.386-1.46-.88-1.76a1.871,1.871,0,0,0-.944-.258,1.065,1.065,0,0,0-1.159,1.03c0,.622.258.987,2.061,1.824,1.717.773,2.232,1.5,2.232,2.64,0,1.782-1.7,2.855-3.692,2.855a8.145,8.145,0,0,1-2.554-.408c-.107-.472-.3-2.168-.322-2.576a1.439,1.439,0,0,1,.687-.215,3.392,3.392,0,0,0,1.352,2.125,2.26,2.26,0,0,0,1.145.3c.751,0,1.223-.408,1.223-.987,0-.644-.386-1.009-1.481-1.545-2.061-.987-2.683-1.782-2.683-3.026,0-1.481,1.159-2.747,3.478-2.747a11.831,11.831,0,0,1,1.481.129l.987.129A17.93,17.93,0,0,0,1419.614,180.885Z" transform="translate(-1299.316 -172.664)" fill="#5e2568"/>
        <path id="Path_56" data-name="Path 56" d="M1471.74,164.08c-.429,0-1.18-.064-2.447-.064-1.095,0-1.91.064-2.382.064a1.161,1.161,0,0,1,0-.715,3.8,3.8,0,0,0,.837-.172c.286-.107.344-.3.365-.816s.043-1.867.043-2.941c0-.751-.021-1.588-.021-1.975a.751.751,0,0,0-.172-.515,2.069,2.069,0,0,0-.9-.494.887.887,0,0,1,.064-.622,13.245,13.245,0,0,0,3.456-.715c0,.9-.021,2.447-.021,3.692,0,1.116,0,2.554.021,3.542,0,.558.129.73.408.837a4.927,4.927,0,0,0,.837.172A1.089,1.089,0,0,1,1471.74,164.08ZM1470,153.519a2.541,2.541,0,0,1-1.4.107,1.265,1.265,0,0,1-.665-.923,1.522,1.522,0,0,1,.129-.923,2.469,2.469,0,0,1,1.417-.451,1.207,1.207,0,0,1,.858.257,1.4,1.4,0,0,1,.193.73,1.654,1.654,0,0,1-.538,1.2Z" transform="translate(-1344.873 -149.656)" fill="#5e2568"/>
        <path id="Path_57" data-name="Path 57" d="M1509.632,163.187c-.043,0-.086.086-.086.129-.022.88-.022,2.511-.022,3.542a7.1,7.1,0,0,0,.108,1.588,1.115,1.115,0,0,0,1.159.837,1.917,1.917,0,0,0,1.2-.322,1.691,1.691,0,0,1-.022.73,3.09,3.09,0,0,1-2.425,1.095,2.248,2.248,0,0,1-2.1-1.052,4.647,4.647,0,0,1-.322-2.4c0-1.116.022-3.048.022-3.949a.207.207,0,0,0-.129-.193c-.3-.021-.751-.043-1.073-.086a3.132,3.132,0,0,1,.193-.837,5.6,5.6,0,0,0,.9-.215c.043,0,.086-.086.108-.172v-1.824a8.606,8.606,0,0,0,2.039-1.095,1.593,1.593,0,0,1,.451-.021c-.043.429-.086,1.46-.086,2.9,0,.064.043.15.086.15.644,0,1.953-.064,2.447-.107a9.487,9.487,0,0,0-.214,1.331C1511.263,163.187,1510.385,163.187,1509.632,163.187Z" transform="translate(-1378.366 -156.168)" fill="#5e2568"/>
        <path id="Path_58" data-name="Path 58" d="M1551.469,179.83c.3,0,1.288.064,2.533.064,1.159,0,1.867-.064,2.383-.064a1.24,1.24,0,0,1,.043.687,4.075,4.075,0,0,0-.685.2.365.365,0,0,0-.172.386c.344,1.03,1.5,3.971,1.739,4.465h.086a24.245,24.245,0,0,0,1.48-4.143c.023-.286.023-.558-.385-.687a4.456,4.456,0,0,0-.944-.215,1.57,1.57,0,0,1,.086-.687c.408,0,1.136.064,1.93.064.73,0,1.417-.043,2.039-.064a1.235,1.235,0,0,1,.022.687,2.807,2.807,0,0,0-.773.215c-.387.15-.644.451-.9,1.18a80.88,80.88,0,0,1-4.828,10.26c-.258.472-.58,1.03-.73,1.331l-.236.064a2.616,2.616,0,0,1-1.352-.644.854.854,0,0,1,.021-.408,24.788,24.788,0,0,0,3.048-4.271,3.147,3.147,0,0,1-.258-.494c-.494-1.2-1.331-3.291-2.082-5.044-.623-1.46-.816-1.824-1.417-2.018-.215-.064-.473-.107-.751-.172A1.357,1.357,0,0,1,1551.469,179.83Z" transform="translate(-1417.284 -174.078)" fill="#5e2568"/>
      </g>
      <g id="Group_1472" data-name="Group 1472" transform="translate(0.825 28.404)">
        <path id="Path_59" data-name="Path 59" d="M620.131,362.847c-.017.05-.236.05-.27.017-.084-.76-.236-1.145-.608-1.318a1.607,1.607,0,0,0-.743-.169,1,1,0,0,0-1.047,1.03c0,.572.186.946,1.419,1.574,1.367.691,1.671,1.2,1.671,1.975a2.2,2.2,0,0,1-2.448,1.992,4.74,4.74,0,0,1-1.672-.32,10.532,10.532,0,0,1-.2-1.756c.017-.05.2-.1.27-.067a2.1,2.1,0,0,0,1.03,1.621,1.625,1.625,0,0,0,.76.185,1.06,1.06,0,0,0,1.165-1.029c0-.624-.3-.963-1.216-1.47-1.418-.743-1.79-1.316-1.79-2.161,0-1.013.794-1.892,2.29-1.892a5.589,5.589,0,0,1,.963.084,5.734,5.734,0,0,0,.608.067A9.568,9.568,0,0,0,620.131,362.847Z" transform="translate(-616.23 -356.127)" fill="#5e2568"/>
        <path id="Path_60" data-name="Path 60" d="M676.284,327.129a6.959,6.959,0,0,0,2.314-.539.213.213,0,0,1,.067.152c-.1.186-.136.355-.152,1.468-.034.946,0,3.783,0,4.323,0,.017.033.034.067.017a4,4,0,0,1,2.313-1.03c1.249,0,1.942.963,1.942,2.634,0,.879,0,2.516.017,3.258a.429.429,0,0,0,.119.321,1.714,1.714,0,0,0,.859.253c.017.051,0,.253-.05.27-.219,0-.859-.05-1.6-.05s-1.266.033-1.5.05a.365.365,0,0,1,0-.27,3.9,3.9,0,0,0,.658-.135c.2-.1.286-.169.3-.911a22.919,22.919,0,0,0-.084-3.444A1.468,1.468,0,0,0,680,332.314a1.922,1.922,0,0,0-1.288.472.553.553,0,0,0-.2.389c0,1.181,0,3.494.033,3.951.034.522.119.675.439.76a4.12,4.12,0,0,0,.557.1.265.265,0,0,1,0,.253c-.2,0-.725-.033-1.689-.033-.743,0-1.165.05-1.468.05-.017-.033-.034-.219.017-.27a3.314,3.314,0,0,0,.557-.1c.27-.084.338-.286.355-.794.033-.4.033-2.465.033-2.888,0-4.339-.016-5.741-.084-6.332-.033-.236-.084-.353-.338-.421-.152-.034-.354-.051-.641-.084A.42.42,0,0,1,676.284,327.129Z" transform="translate(-667.673 -326.59)" fill="#5e2568"/>
        <path id="Path_61" data-name="Path 61" d="M762.618,362.387a1.574,1.574,0,0,0-1.332-.641,1.145,1.145,0,0,0-.608.152,2.786,2.786,0,0,0-.675,1.216c-.05.05-.321-.169-.321-.3a2.185,2.185,0,0,1,.3-.81,4.7,4.7,0,0,1,2.146-.963,1.732,1.732,0,0,1,1.537.844,3.266,3.266,0,0,1,.355,1.656c0,.894-.051,2.161-.051,2.786,0,.3.119.743.608.743a1.478,1.478,0,0,0,.572-.084,1.086,1.086,0,0,1-.067.338,1.822,1.822,0,0,1-1.316.607.784.784,0,0,1-.794-.4,1.905,1.905,0,0,1-.119-.439.046.046,0,0,0-.067-.033,4.968,4.968,0,0,1-1.875.877,1.215,1.215,0,0,1-.859-.371,2.058,2.058,0,0,1-.558-1.453,3.092,3.092,0,0,1,.186-.81c.456-.27,2.55-.829,3.124-1.132a.3.3,0,0,0,.1-.152c.017-.2,0-.422,0-.658A1.741,1.741,0,0,0,762.618,362.387Zm.221,2.111a9.619,9.619,0,0,0-2.061.811,1.338,1.338,0,0,0-.119.522,1.152,1.152,0,0,0,1.166,1.233,1.892,1.892,0,0,0,.878-.253.442.442,0,0,0,.152-.355c.017-.524.034-1.638.034-1.925C762.889,364.514,762.86,364.48,762.839,364.5Z" transform="translate(-738.996 -356.106)" fill="#5e2568"/>
        <path id="Path_62" data-name="Path 62" d="M825.287,360.463a6.6,6.6,0,0,0,2.043-.844c.033-.017.117.084.1.117-.017.169-.034.777-.034,1.132,0,.017.05.017.067.017a4.8,4.8,0,0,1,2.381-1.065,2.162,2.162,0,0,1,1.6.743,3.336,3.336,0,0,1,.743,2.128,3.682,3.682,0,0,1-1.418,3,4.7,4.7,0,0,1-2.669,1.013,3,3,0,0,1-.674-.117.114.114,0,0,0-.052.084c0,1.706.017,2.566.052,3.191.016.489.135.591.522.658.22.034.474.051.827.084.034.052.017.27-.033.286h-.777c-1.418.017-2.28.169-2.836.2-.034-.033-.052-.253,0-.286.2-.051.489-.119.675-.186.286-.119.371-.321.388-.743.034-.675.034-2.146.034-4.424,0-2.583.017-3.444-.034-4.007-.017-.253-.05-.439-.2-.541a1.8,1.8,0,0,0-.744-.2A.286.286,0,0,1,825.287,360.463Zm2.3.691a.474.474,0,0,0-.2.355c-.033.355-.033,2.871,0,3.291a1.061,1.061,0,0,0,.429.963,2.019,2.019,0,0,0,1.2.321,1.928,1.928,0,0,0,1.232-.474,2.919,2.919,0,0,0,.76-2.245,3.236,3.236,0,0,0-.608-2.043,1.822,1.822,0,0,0-1.431-.675A2.173,2.173,0,0,0,827.584,361.154Z" transform="translate(-795.214 -354.891)" fill="#5e2568"/>
        <path id="Path_63" data-name="Path 63" d="M909.574,350.176c-.355,0-1.013-.05-1.554-.05-.693,0-1.288.05-1.574.05a.367.367,0,0,1,0-.27,1.871,1.871,0,0,0,.658-.134c.2-.084.286-.219.3-.693.034-.422.034-1.773.034-2.7,0-.658,0-1.249-.017-1.535a.481.481,0,0,0-.1-.338,1.2,1.2,0,0,0-.675-.322.69.69,0,0,1,0-.253,6.7,6.7,0,0,0,2.011-.507c-.017.457-.034,1.825-.034,2.853,0,.913,0,2.111.017,2.922,0,.355.117.507.355.591a2.7,2.7,0,0,0,.624.117C909.624,349.957,909.624,350.159,909.574,350.176Zm-1.267-8.46a1.178,1.178,0,0,1-.642.05.652.652,0,0,1-.354-.608.645.645,0,0,1,.085-.4,1.058,1.058,0,0,1,.675-.253.742.742,0,0,1,.455.152.605.605,0,0,1,.143.389A.788.788,0,0,1,908.307,341.716Z" transform="translate(-864.895 -338.509)" fill="#5e2568"/>
        <path id="Path_64" data-name="Path 64" d="M958.551,367.261c.236-.084.3-.355.321-.675.05-.591.033-1.756.033-2.736,0-.844-.016-1.451-.033-1.574-.034-.2-.143-.321-.794-.507-.017-.034,0-.219.052-.236a5.91,5.91,0,0,0,1.975-.643.077.077,0,0,1,.051.069c-.035.338-.051.715-.068,1,0,.05.034.084.068.067a4.086,4.086,0,0,1,2.33-1.122,1.688,1.688,0,0,1,1.5.859,3.552,3.552,0,0,1,.4,1.925c0,.879,0,2.433.017,3.106,0,.2.052.338.219.389a2.189,2.189,0,0,0,.727.185c.017.051,0,.238-.052.27-.236,0-.624-.05-1.468-.05-.811,0-1.3.033-1.654.05a.369.369,0,0,1,0-.27,4.265,4.265,0,0,0,.641-.1.5.5,0,0,0,.355-.524,35.619,35.619,0,0,0-.034-3.563,1.944,1.944,0,0,0-.489-1.08,1.356,1.356,0,0,0-1.031-.372,2,2,0,0,0-1.368.558c-.117.117-.169.253-.169.608,0,1.266,0,2.9.034,3.646.017.49.1.608.3.675a2.994,2.994,0,0,0,.716.152.742.742,0,0,1-.017.27c-.286,0-.76-.05-1.621-.05-.979,0-1.266.05-1.536.05a.368.368,0,0,1,0-.27,2.012,2.012,0,0,0,.586-.109Z" transform="translate(-909.043 -355.982)" fill="#5e2568"/>
        <path id="Path_65" data-name="Path 65" d="M1042.913,361.353a3.208,3.208,0,0,0,.979.169c.658,0,.81-.1,1.03-.321.017-.017.117.033.117.085a1.874,1.874,0,0,1-.4.827.8.8,0,0,1-.539.134c-.143,0-.152,0-.43-.017-.017,0-.034.052-.017.084a2.953,2.953,0,0,1,.2,1.115,2.481,2.481,0,0,1-.963,2.146,3.37,3.37,0,0,1-1.84.708,1.018,1.018,0,0,1-.236.017c-.169.034-.506.2-.506.472,0,.338.371.507.607.541a27.229,27.229,0,0,1,2.753.338,1.665,1.665,0,0,1,1.232,1.671,3.369,3.369,0,0,1-1.992,2.8,3.784,3.784,0,0,1-1.84.456,2.98,2.98,0,0,1-1.842-.558,1.965,1.965,0,0,1-.844-1.587,1.317,1.317,0,0,1,.119-.591,14.853,14.853,0,0,1,1.671-1.4c.017,0,0-.052-.017-.052a1.457,1.457,0,0,1-1.13-1.145,1.069,1.069,0,0,1,.033-.2c.238-.134.946-.539,1.182-.726.035-.034.017-.084-.016-.084a2.4,2.4,0,0,1-1.554-2.466,2.532,2.532,0,0,1,.929-1.975,3.743,3.743,0,0,1,1.976-.727A3.566,3.566,0,0,1,1042.913,361.353Zm1.03,8.746a1.288,1.288,0,0,0-.879-1.288,6.53,6.53,0,0,0-2.06-.321,1.115,1.115,0,0,0-.607.169,1.738,1.738,0,0,0-.964,1.418,1.587,1.587,0,0,0,.609,1.249,2.574,2.574,0,0,0,1.738.541C1043.4,371.872,1043.944,371.028,1043.944,370.1Zm-4.121-6.737c0,1.249.573,2.433,1.706,2.433a1.082,1.082,0,0,0,.777-.3,2.273,2.273,0,0,0,.457-1.621c0-1.047-.429-2.347-1.74-2.347C1040.229,361.522,1039.823,362.315,1039.823,363.362Z" transform="translate(-977.973 -356.136)" fill="#5e2568"/>
        <path id="Path_66" data-name="Path 66" d="M1156.61,337.92c.286-.1.355-.3.355-.643.017-.894.017-2.8.034-4.722,0-.033-.034-.134-.067-.134l-.829-.034a.823.823,0,0,1,.119-.338,2.393,2.393,0,0,0,.725-.236.144.144,0,0,0,.069-.1c0-2.093.429-3.434,1.89-4.475a3.106,3.106,0,0,1,1.5-.607,1.405,1.405,0,0,1,1.266.607v.136a3.413,3.413,0,0,1-.557.81.13.13,0,0,1-.134.017,2.387,2.387,0,0,0-1.487-.793,1.018,1.018,0,0,0-.708.286c-.558.541-.608,2-.626,3.434,0,.1,0,.474.017.572,0,.016.033.1.068.1q1.342-.024,1.621-.05a4.556,4.556,0,0,0-.143.693c-.338,0-1.232-.034-1.5-.017-.017,0-.068.119-.068.134.017,1.757,0,3.864.034,4.7.016.4.169.591.489.658a4.013,4.013,0,0,0,.726.117.5.5,0,0,1-.033.271c-.457,0-1.03-.05-1.791-.05-.4,0-1.217.05-1.587.05-.034-.017-.034-.219,0-.27A5.533,5.533,0,0,0,1156.61,337.92Z" transform="translate(-1078.736 -326.624)" fill="#5e2568"/>
        <path id="Path_67" data-name="Path 67" d="M1210.979,361.78a10.107,10.107,0,0,0,2.213-.27,21.962,21.962,0,0,0-.085,3.158,10.151,10.151,0,0,0,.085,1.79,1.283,1.283,0,0,0,1.383,1.029,1.983,1.983,0,0,0,1.318-.489.686.686,0,0,0,.2-.472c.034-.321.017-2.972-.017-3.834a.486.486,0,0,0-.321-.489,7.82,7.82,0,0,0-1.063-.152.307.307,0,0,1,.035-.27,15.241,15.241,0,0,0,2.616-.253,16.2,16.2,0,0,0-.067,1.79l.018,3.343c0,.716.118.827.472.827a5.05,5.05,0,0,0,.524-.033c0,.033.017.253-.033.286-.608.169-1.673.524-2.061.676-.05,0-.1-.05-.1-.135-.017-.2,0-.676,0-.963a.066.066,0,0,0-.037-.053.068.068,0,0,0-.065,0,3.493,3.493,0,0,1-2.178,1.063c-1.587,0-1.907-1.1-1.907-2.245,0-.794.017-2.55-.018-3.31-.017-.3-.033-.507-.236-.591a2.97,2.97,0,0,0-.726-.135A.452.452,0,0,1,1210.979,361.78Z" transform="translate(-1125.827 -356.513)" fill="#5e2568"/>
        <path id="Path_68" data-name="Path 68" d="M1293.581,349.863c-.033,0-.085.067-.085.1,0,.962-.016,2.8,0,3.546a3.432,3.432,0,0,0,.119,1.013.885.885,0,0,0,.894.591,1.519,1.519,0,0,0,.929-.271.9.9,0,0,1-.033.286,1.954,1.954,0,0,1-1.554.744,1.356,1.356,0,0,1-1.317-.716,4.26,4.26,0,0,1-.221-1.924c0-.9.017-2.567.017-3.243a.113.113,0,0,0-.067-.117c-.134-.034-.608-.051-.844-.067a3.062,3.062,0,0,1,.135-.406,5.628,5.628,0,0,0,.727-.134.15.15,0,0,0,.05-.1v-1.328a3.676,3.676,0,0,0,1.065-.844.419.419,0,0,1,.2.034,13.674,13.674,0,0,0-.1,2.111c0,.033.052.1.085.1a18.128,18.128,0,0,0,1.824-.067,4.727,4.727,0,0,0-.143.715C1294.747,349.88,1294.1,349.863,1293.581,349.863Z" transform="translate(-1194.803 -344.072)" fill="#5e2568"/>
        <path id="Path_69" data-name="Path 69" d="M1347.619,361.78a10.1,10.1,0,0,0,2.212-.27,22.093,22.093,0,0,0-.084,3.158,10.18,10.18,0,0,0,.084,1.79,1.284,1.284,0,0,0,1.384,1.029,1.982,1.982,0,0,0,1.318-.489.679.679,0,0,0,.2-.472c.035-.321.017-2.972-.016-3.834a.489.489,0,0,0-.322-.489,7.836,7.836,0,0,0-1.063-.152.306.306,0,0,1,.034-.27,15.244,15.244,0,0,0,2.616-.253,16.109,16.109,0,0,0-.067,1.79l.017,3.343c0,.716.119.827.474.827a5.027,5.027,0,0,0,.522-.033c0,.033.017.253-.033.286-.608.169-1.671.524-2.061.676-.05,0-.1-.05-.1-.135-.016-.2,0-.676,0-.963a.065.065,0,0,0-.1-.05,3.5,3.5,0,0,1-2.179,1.063c-1.587,0-1.907-1.1-1.907-2.245,0-.794.017-2.55-.017-3.31-.017-.3-.033-.507-.236-.591a2.97,2.97,0,0,0-.725-.135A.452.452,0,0,1,1347.619,361.78Z" transform="translate(-1242.914 -356.513)" fill="#5e2568"/>
        <path id="Path_70" data-name="Path 70" d="M1433.017,361.284a.615.615,0,0,1,0,.253,3.2,3.2,0,0,1-.506.911,1.085,1.085,0,0,1-.134.052,1.43,1.43,0,0,0-.98-.456c-.354,0-.624.3-.859.693a1.73,1.73,0,0,0-.153.675c0,.962.017,2.938.051,3.275s.1.489.32.572a4.188,4.188,0,0,0,.879.134.308.308,0,0,1-.034.27c-.236,0-1.063-.05-1.706-.05-.455,0-1.334.033-1.62.05a.365.365,0,0,1,0-.27,3.122,3.122,0,0,0,.624-.117c.152-.067.254-.169.271-.474.05-.286.067-1.739.067-3a14.165,14.165,0,0,0-.034-1.418c-.016-.169-.067-.457-.827-.641,0-.051.017-.2.051-.22a5.845,5.845,0,0,0,1.908-.608c.017,0,.067.034.067.052-.017.3-.017,1.08-.017,1.4,0,.017.051.034.069.017a6.045,6.045,0,0,1,1-1.1,1.4,1.4,0,0,1,.859-.355A.819.819,0,0,1,1433.017,361.284Z" transform="translate(-1312.053 -355.999)" fill="#5e2568"/>
        <path id="Path_71" data-name="Path 71" d="M1495.652,366.389a.709.709,0,0,1-.034.286,3.763,3.763,0,0,1-2.634,1.317,2.6,2.6,0,0,1-1.975-.81,3.776,3.776,0,0,1-.879-2.576,3.313,3.313,0,0,1,1.452-2.955,3.846,3.846,0,0,1,1.717-.541c1.574,0,2.094,1.487,2.23,2.29.017.05.05.119.2.135.017.051-.016.2-.068.22a25.391,25.391,0,0,1-4.306.388c-.067,0-.1.1-.1.186a3.281,3.281,0,0,0,.624,1.86,2.265,2.265,0,0,0,1.86.859,2.458,2.458,0,0,0,1.84-.716C1495.6,366.334,1495.652,366.352,1495.652,366.389Zm-4.339-2.77c0,.051.034.1.05.1a22.125,22.125,0,0,0,2.853-.117.176.176,0,0,0,.1-.136c-.1-.859-.572-1.925-1.552-1.925-.76,0-1.385.723-1.452,2.073Z" transform="translate(-1365.079 -356.17)" fill="#5e2568"/>
        <path id="Path_72" data-name="Path 72" d="M1565.181,362.847c-.017.05-.236.05-.27.017-.084-.76-.236-1.145-.608-1.318a1.607,1.607,0,0,0-.743-.169,1,1,0,0,0-1.046,1.03c0,.572.185.946,1.419,1.574,1.368.691,1.671,1.2,1.671,1.975a2.2,2.2,0,0,1-2.448,1.992,4.747,4.747,0,0,1-1.671-.32,10.61,10.61,0,0,1-.2-1.756c.017-.05.2-.1.271-.067a2.1,2.1,0,0,0,1.03,1.621,1.631,1.631,0,0,0,.76.185,1.06,1.06,0,0,0,1.164-1.029c0-.624-.3-.963-1.216-1.47-1.418-.743-1.789-1.316-1.789-2.161,0-1.013.793-1.892,2.29-1.892a5.589,5.589,0,0,1,.963.084,5.738,5.738,0,0,0,.608.067A9.7,9.7,0,0,0,1565.181,362.847Z" transform="translate(-1426.048 -356.127)" fill="#5e2568"/>
      </g>
    </g>
  </g>
</svg>
