<svg xmlns="http://www.w3.org/2000/svg" xmlns:xlink="http://www.w3.org/1999/xlink" width="43" height="43" viewBox="0 0 43 43">
  <defs>
    <filter id="Ellipse_29" x="0" y="0" width="43" height="43" filterUnits="userSpaceOnUse">
      <feOffset dy="3" input="SourceAlpha"/>
      <feGaussianBlur stdDeviation="3" result="blur"/>
      <feFlood flood-opacity="0.161"/>
      <feComposite operator="in" in2="blur"/>
      <feComposite in="SourceGraphic"/>
    </filter>
  </defs>
  <g id="tick" transform="translate(-542 -2236)">
    <g transform="matrix(1, 0, 0, 1, 542, 2236)" filter="url(#Ellipse_29)">
      <g id="Ellipse_29-2" data-name="Ellipse 29" transform="translate(9 6)" fill="#fff" stroke="#d5c195" stroke-width="1">
        <circle cx="12.5" cy="12.5" r="12.5" stroke="none"/>
        <circle cx="12.5" cy="12.5" r="12" fill="none"/>
      </g>
    </g>
    <path id="Path_25930" data-name="Path 25930" d="M-14526.937,1522.756l3.336,3.68,7.938-7" transform="translate(15084.438 732.064)" fill="none" stroke="#5d2468" stroke-linecap="round" stroke-width="2"/>
  </g>
</svg>
