<svg id="_001-youtube" data-name="001-youtube" xmlns="http://www.w3.org/2000/svg" width="26.429" height="18.505" viewBox="0 0 26.429 18.505">
  <path id="Path_535" data-name="Path 535" d="M25.885,2.9A3.311,3.311,0,0,0,23.555.566C21.487,0,13.214,0,13.214,0S4.942,0,2.874.545A3.379,3.379,0,0,0,.544,2.9,34.891,34.891,0,0,0,0,9.252a34.763,34.763,0,0,0,.544,6.357,3.312,3.312,0,0,0,2.33,2.33c2.09.566,10.341.566,10.341.566s8.273,0,10.341-.544a3.311,3.311,0,0,0,2.33-2.329,34.893,34.893,0,0,0,.544-6.357A33.119,33.119,0,0,0,25.885,2.9Zm0,0" transform="translate(0 0)" fill="#5c2367"/>
  <path id="Path_536" data-name="Path 536" d="M204.969,110.409l6.879-3.962-6.879-3.962Zm0,0" transform="translate(-194.389 -97.194)" fill="#fff"/>
</svg>
