<svg id="_004-facebook" data-name="004-facebook" xmlns="http://www.w3.org/2000/svg" width="19.785" height="19.785" viewBox="0 0 19.785 19.785">
  <path id="Path_179" data-name="Path 179" d="M17.312,0H2.473A2.476,2.476,0,0,0,0,2.473V17.312a2.476,2.476,0,0,0,2.473,2.473H17.312a2.476,2.476,0,0,0,2.473-2.473V2.473A2.476,2.476,0,0,0,17.312,0Z" fill="#5c2367"/>
  <path id="Path_180" data-name="Path 180" d="M204.776,104.518h-4.259v-3.407c0-.94.763-.852,1.7-.852h1.7V96h-3.407a5.11,5.11,0,0,0-5.111,5.111v3.407H192v4.259h3.407v6.9h5.111v-6.9h2.555Z" transform="translate(-187.053 -95.944)" fill="#fff"/>
</svg>
