<svg xmlns="http://www.w3.org/2000/svg" width="26" height="26" viewBox="0 0 26 26">
  <g id="website-icon" transform="translate(-1383 -3451)">
    <rect id="Rectangle_786" data-name="Rectangle 786" width="26" height="26" rx="3" transform="translate(1383 3451)" fill="#5d2468"/>
    <path id="Path_25966" data-name="Path 25966" d="M17.193,58.781a9.944,9.944,0,0,0-7.078-2.932h0a10.009,10.009,0,1,0,7.078,2.932Zm.654,11.352h-2.93a13.17,13.17,0,0,0,.684-3.688h3.33A8.772,8.772,0,0,1,17.847,70.133Zm-7.732,4.476a8.3,8.3,0,0,1-3.029-3.3h6.057A8.3,8.3,0,0,1,10.115,74.609ZM6.557,70.133A11.923,11.923,0,0,1,5.8,66.446h8.624a11.927,11.927,0,0,1-.753,3.688ZM1.3,66.446h3.33a13.172,13.172,0,0,0,.684,3.688H2.384A8.77,8.77,0,0,1,1.3,66.446Zm1.085-4.861h2.93a13.173,13.173,0,0,0-.684,3.688H1.3A8.77,8.77,0,0,1,2.384,61.585Zm7.732-4.476a8.3,8.3,0,0,1,3.029,3.3H7.087A8.3,8.3,0,0,1,10.115,57.109Zm3.559,4.476a11.927,11.927,0,0,1,.753,3.688H5.8a11.924,11.924,0,0,1,.753-3.688Zm5.258,3.688H15.6a13.171,13.171,0,0,0-.684-3.688h2.93A8.772,8.772,0,0,1,18.932,65.273Zm-4.484-4.861a10.382,10.382,0,0,0-2.19-3.126,8.856,8.856,0,0,1,4.81,3.126ZM7.972,57.286a10.383,10.383,0,0,0-2.19,3.126H3.162A8.857,8.857,0,0,1,7.972,57.286Zm-2.19,14.02a10.385,10.385,0,0,0,2.19,3.126,8.857,8.857,0,0,1-4.81-3.126Zm6.475,3.126a10.385,10.385,0,0,0,2.19-3.126h2.621A8.857,8.857,0,0,1,12.258,74.432Z" transform="translate(1385.895 3398.15)" fill="#fbf5eb"/>
  </g>
</svg>
