<svg xmlns="http://www.w3.org/2000/svg" width="174.801" height="61.658" viewBox="0 0 174.801 61.658">
  <g id="HU-logo-1366" transform="translate(79.746 -83.254)">
    <g id="Group_1471" data-name="Group 1471" transform="translate(-79.746 83.254)">
      <path id="Path_1" data-name="Path 1" d="M57.166,28.259c0-.064,0-.133,0-.193a28.581,28.581,0,0,0-57.153,0v.149C0,28.34,0,28.462,0,28.591v.418a1.4,1.4,0,0,1,.008.183A28.6,28.6,0,0,0,19.76,55.86a3.75,3.75,0,0,0,.783-1.413l.008-.015v-.045c.059-.283.132-.579.2-.937l.05-.177c.357-1.476.785-2.855.792-2.876.107-.371.2-.659.275-.852a5.178,5.178,0,0,1,.556-.928,1.468,1.468,0,0,1,1.2-.579,2,2,0,0,1,.636.1l.394.163-.018-.42a2.962,2.962,0,0,0-.045-.424,19.145,19.145,0,0,1-4.779-1.69V45.68a19.147,19.147,0,0,1,2.947-35.32l-.027-.078a19.249,19.249,0,0,1,14.606,1.2v.087A19.156,19.156,0,0,1,34.406,46.9l.023.08a19.075,19.075,0,0,1-8.864.668c-1.061,2.2-1.254,5.864-1.254,8.172,0,.3-.02.69-.05,1.118A28.6,28.6,0,0,0,57.16,29.2c0-.051,0-.1,0-.149,0-.123.009-.245.009-.376v-.084C57.175,28.475,57.166,28.37,57.166,28.259Z" transform="translate(0)" fill="#cda8cf"/>
      <path id="Path_2" data-name="Path 2" d="M35.819,7.93A27.824,27.824,0,0,0,27.483,62.3a4.356,4.356,0,0,0,.289-.686l.008-.015v-.045c.059-.283.132-.579.2-.937l.05-.177c.357-1.476.785-2.855.792-2.876.107-.371.2-.659.275-.852a5.178,5.178,0,0,1,.556-.928,1.468,1.468,0,0,1,1.2-.579,1.994,1.994,0,0,1,.636.1l.394.163-.018-.42a2.5,2.5,0,0,0-.4-1.33l1.833.16-.009.078c-1.511,1.98-1.761,6.381-1.761,9.018,0,.077,0,.173-.006.261A27.819,27.819,0,1,0,35.819,7.93Z" transform="translate(-7.228 -7.165)" fill="#5e2568"/>
      <path id="Path_3" data-name="Path 3" d="M93.27,112.817a19.59,19.59,0,1,1,19.594,19.592A19.595,19.595,0,0,1,93.27,112.817" transform="translate(-84.274 -84.229)" fill="#cda8cf" fill-rule="evenodd"/>
      <path id="Path_4" data-name="Path 4" d="M216.887,491.976c0-2.637.25-7.041,1.761-9.018l.009-.078-1.833-.16a2.5,2.5,0,0,1,.4,1.33l.018.42-.393-.163a2,2,0,0,0-.636-.1,1.468,1.468,0,0,0-1.2.579,5.175,5.175,0,0,0-.556.928c-.077.193-.168.482-.275.852-.007.021-.435,1.4-.792,2.876l-.05.177c-.072.355-.146.654-.2.937v.045Z" transform="translate(-192.574 -436.163)" fill="#fff" fill-rule="evenodd"/>
      <path id="Path_5" data-name="Path 5" d="M101.62,120.4a18.785,18.785,0,1,1,18.789,18.78A18.791,18.791,0,0,1,101.62,120.4" transform="translate(-91.819 -91.81)" fill="#fff" fill-rule="evenodd"/>
      <path id="Path_6" data-name="Path 6" d="M116.67,132.882a17.274,17.274,0,1,1,17.274,17.278,17.275,17.275,0,0,1-17.274-17.278" transform="translate(-105.418 -104.46)" fill="#d5c195" fill-rule="evenodd"/>
      <path id="Path_7" data-name="Path 7" d="M156.336,137.716a20.251,20.251,0,0,0-4.139,3.73l1.468.1s.482-.333.612-.011-.2.579-.2.579l-1.054.014.531.357-.753.95.018,1.5c0,.283.7.683.7.683a5.607,5.607,0,0,0,1.431.386c.451-.008,2-.241,2.97-.252s.91,1.044.91,1.044a2.6,2.6,0,0,0-1.276-.508,10.233,10.233,0,0,0-2.965.084,2.518,2.518,0,0,1-1.388-.223,1.633,1.633,0,0,0,.074,2.364c.666.685,2.207.579,3.136.076a2.536,2.536,0,0,1,2.037.007,6.973,6.973,0,0,1-3.081,1.1,2.746,2.746,0,0,1-3.192-1.208,3.3,3.3,0,0,1,.776-2.581,7.843,7.843,0,0,0-.664-.722c-.166-.122-.221-1.054-.3-1.3s-.543-1.133-.543-1.133a1.327,1.327,0,0,1,.046-1.672,30.455,30.455,0,0,1,4.347-3.648,2.011,2.011,0,0,1,.984-2.3l2.061-1.33q1.64-4.88,6.324-4.737-5.032,1.13-5.3,4.964-4.218,2.033-3.569,3.679" transform="translate(-136.593 -116.619)" fill="#5e2568" fill-rule="evenodd"/>
      <path id="Path_8" data-name="Path 8" d="M220.887,217.089l-2.043-.379a4.861,4.861,0,0,1-.784,1.766,3,3,0,0,1,2.594-.852Z" transform="translate(-197.028 -195.809)" fill="#5e2568" fill-rule="evenodd"/>
      <path id="Path_9" data-name="Path 9" d="M233.2,216.084A14.314,14.314,0,0,0,229.55,228.4a22.23,22.23,0,0,1,2.865-9.819c.315-.612,4.385-6.25,4.385-6.25l-2.567,2.6q.2-1.849,2.493-5.167c-.386-2.917-1.273-4.686-2.687-5.3A9.025,9.025,0,0,1,236,210.109a9.122,9.122,0,0,0-2.8,5.98" transform="translate(-207.232 -184.749)" fill="#5e2568" fill-rule="evenodd"/>
      <path id="Path_10" data-name="Path 10" d="M256.36,135.64l1.666-.839q1.736-3.058,6.837-3.031-6.494-.709-8.5,3.87" transform="translate(-231.635 -118.975)" fill="#5e2568" fill-rule="evenodd"/>
      <path id="Path_11" data-name="Path 11" d="M317.58,141.154a13.611,13.611,0,0,1,9.944,5.918q-3.061-6.706-9.944-5.918" transform="translate(-286.95 -127.465)" fill="#5e2568" fill-rule="evenodd"/>
      <path id="Path_12" data-name="Path 12" d="M315.042,161.434q.97-4.6-1.5-5.064c1.228.935,1.447,2.333.675,4.183Z" transform="translate(-283.3 -141.288)" fill="#5e2568" fill-rule="evenodd"/>
      <path id="Path_13" data-name="Path 13" d="M289.9,164.082l-.055-1.254-1.13.542c.022-1.888.532-2.8,1.543-2.707q1.415.734.735,2.965c-.3.551-.663.7-1.095.459" transform="translate(-260.864 -145.162)" fill="#5e2568" fill-rule="evenodd"/>
      <path id="Path_14" data-name="Path 14" d="M354.481,167.61a7.462,7.462,0,0,1,.637,1.489s1.62-.193,3.472,2.178a5.441,5.441,0,0,0-4.11-3.665" transform="translate(-320.291 -151.444)" fill="#5e2568" fill-rule="evenodd"/>
      <path id="Path_15" data-name="Path 15" d="M366.519,191.228l-.579-1.658a4.351,4.351,0,0,1,2.737,2.489c-1.084-1.134-2.02-.94-2.155-.831" transform="translate(-330.646 -171.286)" fill="#5e2568" fill-rule="evenodd"/>
      <path id="Path_16" data-name="Path 16" d="M337,173.9a9.947,9.947,0,0,1,1.9,5.844c.089,3.7.689,5.069,1.6,6.72-.855-2.726-.386-5.065-.359-6.994s-1.51-4.276-3.142-5.569" transform="translate(-304.497 -157.127)" fill="#5e2568" fill-rule="evenodd"/>
      <path id="Path_17" data-name="Path 17" d="M380.24,219a9.785,9.785,0,0,1,.211,4.716,8.061,8.061,0,0,0,.834,5.7c.716,1.379,1.841,2.234,2.339.633a5.02,5.02,0,0,0-.574-4.1,3.186,3.186,0,0,1-.99,4.023c-.554-.909-.446-1.929-.419-3.723s.443-4.736-1.4-7.25" transform="translate(-343.566 -197.878)" fill="#5e2568" fill-rule="evenodd"/>
      <path id="Path_18" data-name="Path 18" d="M334.782,305.777c.019-.326.037-.731.019-1.217-2.689-3.066-1.653-8.36-1.653-8.36a11.408,11.408,0,0,0,1.047,8.873,7.791,7.791,0,0,0,.586.705" transform="translate(-300.585 -267.632)" fill="#5e2568" fill-rule="evenodd"/>
      <path id="Path_19" data-name="Path 19" d="M370.591,229.858c-2.257-2.322-1.985-3.858-1.985-3.858-.579,3.03.852,4.132,1.853,5.427s2.2,2.7,1.978,4.739c-1.175,6.281-4.562,7.147-6.667,5.98a4.609,4.609,0,0,1-.14,1.118c1.411.9,3.417,1.093,5.787-1.785,3.584-4.355,1.428-9.311-.827-11.622" transform="translate(-330.366 -204.203)" fill="#5e2568" fill-rule="evenodd"/>
      <path id="Path_20" data-name="Path 20" d="M364.379,321.32s-.491.418-.219,2.041.331,3.717-1.1,3.418c0,0,.579,1.488,1.35.879s.8-1.877.41-3a8.312,8.312,0,0,1-.442-3.338" transform="translate(-328.043 -290.329)" fill="#5e2568" fill-rule="evenodd"/>
      <path id="Path_21" data-name="Path 21" d="M346.283,353.091s-.434.556-.4,2.724-.122,2.883-1.15,2.218c0,0,.215,1.781.99,1.418s1.172-2.076.964-3.161-.707-2.071-.4-3.2" transform="translate(-311.481 -319.035)" fill="#5e2568" fill-rule="evenodd"/>
      <path id="Path_22" data-name="Path 22" d="M307.546,381.49a13.325,13.325,0,0,0-.312,2.517c-.021,1.306-.658,2.7-1.76,2.974s-1.434-.675-1.272-1.334c0,0-.7,2.462,1.4,2.643,1.6.128,2.5-1.913,2.256-3.678a18.845,18.845,0,0,1-.309-3.121" transform="translate(-274.76 -344.696)" fill="#5e2568" fill-rule="evenodd"/>
      <path id="Path_23" data-name="Path 23" d="M261.311,309.964s1,7.564-2.441,10.747c-1.617,1.5-3.826,1.091-3.107-3.026,0,0-1.419,5.324,1.69,5.041s5.146-6.655,3.858-12.767" transform="translate(-230.803 -280.065)" fill="#5e2568" fill-rule="evenodd"/>
      <path id="Path_24" data-name="Path 24" d="M243.4,390.9s-1.8,3.07-.386,5.671a1.5,1.5,0,0,0,2.025.421,1.677,1.677,0,0,1-2.972-.342c-.886-1.826.426-4.844,1.338-5.749" transform="translate(-218.459 -353.198)" fill="#5e2568" fill-rule="evenodd"/>
      <path id="Path_25" data-name="Path 25" d="M330.009,227.457s2.757,5.827.132,10.691a11.5,11.5,0,0,0-.349-9.079s.009-.17-.242.136c-.2.258-.524.8-.785.3s.988-2.559,1.244-2.05" transform="translate(-297.024 -205.447)" fill="#5e2568" fill-rule="evenodd"/>
      <path id="Path_26" data-name="Path 26" d="M410.594,207.14s2.527,2.08,2.952,8.452c0,0-.268-4.162-2.709-6.691a5.5,5.5,0,0,0,.466,2.767c.2.181.335-.847.223-1.435.539,1.212.584,2.165.184,2.329s-1.558-1.886-1.116-5.422" transform="translate(-370.903 -187.162)" fill="#5e2568" fill-rule="evenodd"/>
      <path id="Path_27" data-name="Path 27" d="M280.475,367.4a10.152,10.152,0,0,0,.928-1.1c.064,2.122-.021,2.667-1.333,4.408a5.019,5.019,0,0,0,.405-3.3" transform="translate(-253.058 -330.971)" fill="#5e2568" fill-rule="evenodd"/>
      <path id="Path_28" data-name="Path 28" d="M254.038,331.4c.152-.313,1.511-.953,2.145-.1.244.414-1.9,3.774-5.1,5.15a12.251,12.251,0,0,0,3.58-3.762c.528-.934-.949-.658-.622-1.3" transform="translate(-226.864 -298.964)" fill="#5e2568" fill-rule="evenodd"/>
      <path id="Path_29" data-name="Path 29" d="M212.7,556.323c.421-.17.493.036-.139.277a22.586,22.586,0,0,1-12.621.586,59.549,59.549,0,0,1-8.847-2.48l.386-.856s20.713,2.68,21.219,2.473" transform="translate(-172.659 -500.432)" fill="#deca95" fill-rule="evenodd"/>
      <path id="Path_30" data-name="Path 30" d="M206.221,478.861l.268-.621c.414.2,4.411,2.159,6.559,2.893,4.634,1.6,8.862,2.619,11.917,2.619a24.047,24.047,0,0,0,4.35-.364,16.422,16.422,0,0,0,3.333-.976,8.59,8.59,0,0,0,2.3-2.1c.264-.336.482-.541.5-.354.3,2.732-2.914,4.579-7.416,5.165-4.575.594-8.956-1.49-13.213-2.451a21.775,21.775,0,0,1-8.6-3.812" transform="translate(-186.331 -432.115)" fill="#cda8cf" fill-rule="evenodd"/>
      <path id="Path_31" data-name="Path 31" d="M206.23,481.468l.32-.508c.417.193,4.359,2.04,6.505,2.778,4.634,1.6,8.862,2.62,11.917,2.62a23.46,23.46,0,0,0,4.35-.368,15.525,15.525,0,0,0,4.543-1.543c.211-.078-.048.213-.143.3-1.3,1.171-4.4,1.994-5.858,2.177-4.581.586-8.782-.675-13.037-1.648a21.709,21.709,0,0,1-8.6-3.807" transform="translate(-186.34 -434.572)" fill="#deca95" fill-rule="evenodd"/>
      <path id="Path_32" data-name="Path 32" d="M218.1,492.1l.323.489s.131.151-1.032,1.1a18.863,18.863,0,0,1-4.157,2.745c-4.039,1.464-8.343,1.177-12.55.223a48.639,48.639,0,0,1-8.767-2.76l1.957-6.38a61.69,61.69,0,0,0,6.07,2.737c4.68,1.606,7.523,2.515,12.082,2.554a19.54,19.54,0,0,0,6.076-.712" transform="translate(-173.41 -440.5)" fill="#cda8cf" fill-rule="evenodd"/>
      <path id="Path_33" data-name="Path 33" d="M206.735,502.448c4.744,1.63,7.672,2.567,12.336,2.6,4.21.041,5.653-.606,5.653-.606a18.994,18.994,0,0,1-4.928,3.245c-3.017,1.122-7.948,1.042-12.056.06a61.347,61.347,0,0,1-8.02-2.441l1.64-5.262a47.483,47.483,0,0,0,5.378,2.411" transform="translate(-180.458 -451.812)" fill="#deca95" fill-rule="evenodd"/>
      <path id="Path_34" data-name="Path 34" d="M261.924,473.88s-2.7,1.455-2.625,10.066a11.6,11.6,0,0,0,.9,5.069l-4.273-2.73-4.224,2.749s.457-3.581.457-5.041.06-7.7,2.159-9.279a.279.279,0,0,1,.237-.078,16.891,16.891,0,0,0,7.37-.751" transform="translate(-227.424 -428.175)" fill="#deca95" fill-rule="evenodd"/>
      <path id="Path_35" data-name="Path 35" d="M246.78,486.2l.063-.839c.012-.1.448-3.581.448-5.006,0-2.927.3-8.04,2.3-9.588a.7.7,0,0,1,.477-.185h.073l.135.017c.411.035,1.113.1,1.993.1a14.458,14.458,0,0,0,5.059-.837l.34.751c-.018.012-2.718,1.327-2.678,9.48.033,4,.5,3.81.675,4.582l.539,1.488-4.735-3.022Zm4.7-3.688,3.728,2.214a9.124,9.124,0,0,1-.772-4.406c-.039-5.249.939-7.928,1.771-9.243a16.776,16.776,0,0,1-3.933.446h0c-.914,0-1.634-.066-2.065-.1l-.1-.012c-1.247.947-1.974,4.291-2.172,8.932-.07,1.693-.289,2.242-.495,4.718Z" transform="translate(-222.979 -424.543)" fill="#cda8cf"/>
      <path id="Path_36" data-name="Path 36" d="M268.395,493.418l-2.865,1.9.016-.193a14.405,14.405,0,0,0,.206-2.7c0-4.565.722-7.78,2.025-9.066l.125.132c-1.267,1.245-1.97,4.418-1.97,8.931a12.725,12.725,0,0,1-.188,2.53l2.649-1.745,2.779,1.832c-.473-1.3-.686-1.2-.675-2.657.056-3.892.491-7.065,1.5-9.169l.163.079c-1,2.079-1.5,5.218-1.471,9.09a11.083,11.083,0,0,0,.889,3.411Z" transform="translate(-239.92 -436.605)" fill="#cda8cf"/>
      <path id="Path_37" data-name="Path 37" d="M170.123,483.451c.07-.313.14-.632.22-.946a.639.639,0,0,1,.044-.193c.363-1.5.8-2.884.8-2.884.1-.351.2-.668.283-.884a6.186,6.186,0,0,1,.589-.991,1.929,1.929,0,0,1,2.16-.555c-.045-1.394-1.061-2.2-2.635-2.073s-2.122,1.907-2.15,2.747-.993,1.319-1.526,1.7c-.549.377-1.2.438-1.55.826-.367.386.473,1.117,1.282.817l.637-.243a5.062,5.062,0,0,1-.745,2.1,1.6,1.6,0,0,1-1.689.431s-.146,2.294,1.985,2.228a2.572,2.572,0,0,0,2.3-2.059v-.023" transform="translate(-149.843 -429.108)" fill="#deca95" fill-rule="evenodd"/>
      <path id="Path_38" data-name="Path 38" d="M165.2,483.293h0a2.04,2.04,0,0,1-1.543-.6,2.792,2.792,0,0,1-.618-1.921l.019-.354.342.109a1.639,1.639,0,0,0,.475.07,1.068,1.068,0,0,0,.9-.405,4.055,4.055,0,0,0,.6-1.5l-.172.071a1.439,1.439,0,0,1-.5.1,1.33,1.33,0,0,1-1.193-.681.6.6,0,0,1,.091-.667,2.361,2.361,0,0,1,.9-.526,3.511,3.511,0,0,0,.709-.346,3.391,3.391,0,0,1,.289-.193c.49-.326,1.092-.733,1.108-1.29.032-.92.665-2.864,2.4-3.01.114-.007.236-.014.344-.014a2.345,2.345,0,0,1,2.594,2.358l.018.42-.393-.163a2,2,0,0,0-.636-.1,1.469,1.469,0,0,0-1.2.579,5.158,5.158,0,0,0-.556.929c-.077.193-.168.482-.275.851-.007.021-.435,1.4-.792,2.876l-.05.177c-.072.355-.146.654-.2.937v.045l-.008.015a2.807,2.807,0,0,1-2.555,2.252Zm-1.606-2.168a2.046,2.046,0,0,0,.467,1.192,1.468,1.468,0,0,0,1.139.425h.08a2.305,2.305,0,0,0,2.041-1.833v-.026c.063-.289.131-.594.213-.943a.936.936,0,0,1,.054-.238c.362-1.478.794-2.858.8-2.872.112-.386.205-.691.289-.9l.01-.017a5.745,5.745,0,0,1,.622-1.041,2.026,2.026,0,0,1,1.64-.784,2.387,2.387,0,0,1,.427.036,1.828,1.828,0,0,0-2.01-1.447c-.087,0-.193,0-.3.009-1.377.119-1.872,1.725-1.9,2.487-.016.838-.789,1.35-1.35,1.725-.108.065-.193.127-.282.186a3.524,3.524,0,0,1-.825.409,1.964,1.964,0,0,0-.689.386c-.006.007-.016.021,0,.073a.813.813,0,0,0,.693.354.867.867,0,0,0,.3-.053l1.053-.412-.054.452a5.33,5.33,0,0,1-.8,2.239,1.612,1.612,0,0,1-1.339.626A1.488,1.488,0,0,1,163.6,481.125Z" transform="translate(-147.312 -426.594)" fill="#cda8cf"/>
      <path id="Path_39" data-name="Path 39" d="M288.3,498.83l-.567-.2V496.89h.084a7.528,7.528,0,0,0,1.136,1.081,1.458,1.458,0,0,0,.806.313.643.643,0,0,0,.459-.176.544.544,0,0,0,.177-.405.686.686,0,0,0-.121-.391.836.836,0,0,0-.376-.261v-.071a.956.956,0,0,1,.612.275.76.76,0,0,1,.216.56.83.83,0,0,1-.226.592.728.728,0,0,1-.551.243,1.054,1.054,0,0,1-.437-.105,2.92,2.92,0,0,1-.747-.519c-.393-.361-.622-.579-.709-.675v.771a1.7,1.7,0,0,0,.02.326.551.551,0,0,0,.067.17.454.454,0,0,0,.156.129Z" transform="translate(-259.979 -448.966)" fill="#5e2568"/>
      <path id="Path_40" data-name="Path 40" d="M284.805,521.156a2.247,2.247,0,0,1,.861.156,1.255,1.255,0,0,1,.537.407.725.725,0,0,1,.143.4.783.783,0,0,1-.347.608,1.856,1.856,0,0,1-1.162.33,2.344,2.344,0,0,1-.868-.141,1.09,1.09,0,0,1-.511-.378.741.741,0,0,1-.168-.443.8.8,0,0,1,.493-.692A2.042,2.042,0,0,1,284.805,521.156Zm-.057.426a2.723,2.723,0,0,0-.987.15c-.22.084-.328.2-.328.37a.361.361,0,0,0,.108.239.625.625,0,0,0,.352.193,4.223,4.223,0,0,0,1.048.1,2.858,2.858,0,0,0,.837-.1.747.747,0,0,0,.352-.2.321.321,0,0,0,.073-.212.347.347,0,0,0-.133-.265,1.117,1.117,0,0,0-.569-.21,4.7,4.7,0,0,0-.758-.053Z" transform="translate(-255.967 -470.891)" fill="#5e2568"/>
      <path id="Path_41" data-name="Path 41" d="M284.808,547.29l.347.717v.068h-2.482a1.173,1.173,0,0,0-.3.022.148.148,0,0,0-.1.086.637.637,0,0,0-.032.264h-.082v-1.1h.081a.633.633,0,0,0,.032.267.193.193,0,0,0,.081.082,1.13,1.13,0,0,0,.319.022h1.593a2.525,2.525,0,0,0,.412-.018.171.171,0,0,0,.1-.055.191.191,0,0,0,.034-.1.491.491,0,0,0-.073-.22Z" transform="translate(-254.947 -494.505)" fill="#5e2568"/>
      <path id="Path_42" data-name="Path 42" d="M277.859,566.134h-.313v-.394h-.776v-.36h.776v-1.24h.279l1.943,1.359v.241h-1.909Zm0-.75h1.447l-1.447-1.03Z" transform="translate(-250.076 -509.73)" fill="#5e2568"/>
      <path id="Path_43" data-name="Path 43" d="M32.639,62.952a2.283,2.283,0,0,1-.283.129l-.344-.43c-.048-.05-.108-.109-.185-.178l-.972.482c-.334.193-.579.345-.755.435l-.1.048c-.108.047-.368.193-.787.422l-.1.068-.328.16-.323.193-.164.1a5.14,5.14,0,0,0-.5.312.536.536,0,0,0-.079.084.528.528,0,0,0,.02.076c.014.021.021.055.035.076a2.923,2.923,0,0,0,.138.342l.015.068a1.027,1.027,0,0,1,.059.17.558.558,0,0,1-.139.083.329.329,0,0,1-.136.048c-.032-.041-.08-.116-.132-.2s-.086-.156-.108-.187c-.135-.328-.25-.566-.328-.719-.044-.067-.071-.136-.113-.208a1.791,1.791,0,0,0-.1-.193c-.042-.085-.164-.282-.372-.59a.858.858,0,0,1-.107-.157,2.493,2.493,0,0,1-.122-.243.578.578,0,0,0,.111-.071c.049-.015.1-.041.171-.068l.476.619a.129.129,0,0,0,.153.017l.131-.085.067-.037.163-.086.132-.07.029-.012a.1.1,0,0,1,.066-.043l.482-.265c.044-.027.075-.051.1-.064l.12-.061c.041-.015.089-.042.132-.064s.125-.08.259-.156c-.024-.077-.052-.146-.069-.193l-.309-.57-.153-.272-.373-.688-.386-.654a1.615,1.615,0,0,0-.179-.26c-.09.043-.3.154-.64.338l-.173.083-.634.375-.238.185a.129.129,0,0,0-.025.084,2.739,2.739,0,0,0,.118.607,1.5,1.5,0,0,1,.034.157.909.909,0,0,1-.231.091.31.31,0,0,1-.059-.1l-.2-.364a5.359,5.359,0,0,0-.348-.738c-.028-.059-.054-.1-.072-.133l-.289-.482a.593.593,0,0,0-.076-.122,1.458,1.458,0,0,1-.184-.264c-.04-.072-.08-.156-.128-.266a2.288,2.288,0,0,1,.274-.133c.177.2.3.341.351.4a1.421,1.421,0,0,0,.209.162l.081-.02.076-.034.086-.057.055-.025a.89.89,0,0,0,.126-.052l.1-.054c.108-.064.173-.1.187-.113l.482-.267.353-.206.482-.257c.118-.059.337-.193.675-.386l.538-.3.446-.245c.084-.053.184-.1.307-.162a.924.924,0,0,0-.045-.171,3.13,3.13,0,0,1-.14-.619l.265-.16c.054.1.09.16.1.177q.117.208.212.427a9.706,9.706,0,0,0,.521,1.015,7.878,7.878,0,0,0,.489.776.432.432,0,0,1,.05.144,1.156,1.156,0,0,1-.272.106l-.227-.254-.208-.271a1.278,1.278,0,0,1-.1-.1,11.079,11.079,0,0,0-1.038.525l-.335.16a3.885,3.885,0,0,1-.459.3,2.847,2.847,0,0,0,.147.307l.964,1.769.013.041.008.024a.335.335,0,0,1,.037.059c.04.063.07.122.1.167l.054.107a.579.579,0,0,0,.12.146l.289-.141.048-.024a1.142,1.142,0,0,1,.125-.081l1.173-.652c.064-.038.13-.078.193-.122l.007-.044-.225-.616c-.012-.035-.015-.056-.02-.069a.219.219,0,0,1-.006-.107c.048-.041.088-.067.1-.081l.147-.06c.051.1.1.168.131.233s.056.113.084.155a.539.539,0,0,1,.027.071l.283.545c.059.132.149.314.274.539l.049.084c.068.1.1.162.115.176C32.3,62.38,32.448,62.619,32.639,62.952Zm-3.659-6.965a3.866,3.866,0,0,0-.145-.589l-.063-.168c-.059-.681-.1-1.1-.125-1.281a.557.557,0,0,0-.1.009c-.042.01-.108.018-.209.039v.311a.811.811,0,0,1-.052.4.2.2,0,0,1-.153.086.939.939,0,0,1-.316-.037c-.559-.1-.915-.172-1.068-.216l-.253-1.63.789-.472.386-.237a.332.332,0,0,1,.115-.04.146.146,0,0,1,.1.027.772.772,0,0,1,.121.234l.181.458a1.7,1.7,0,0,0,.289-.031l-.038-.207-.15-.722c-.024-.1-.055-.263-.089-.482s-.057-.43-.08-.694-.042-.491-.074-.7a.738.738,0,0,0-.1.011c-.041.009-.116.027-.208.054a1.652,1.652,0,0,0-.032.394.586.586,0,0,1-.049.267.789.789,0,0,1-.193.164,4.715,4.715,0,0,1-.514.314c-.255.148-.44.256-.56.332-.212.134-.482.3-.81.482s-.675.4-1.015.623L22.918,53.7l-.072.05.022.193c.018.086.033.177.052.273l2.821.591,2.4.5a.779.779,0,0,1,.275.141,1.254,1.254,0,0,1,.171.386c.051.128.091.221.114.271l.3-.039Zm-2.707-1.543c-.1-.675-.156-1.061-.177-1.182l-.017-.1c-.249.122-.522.28-.841.469s-.55.343-.72.459Zm1.881-5.959c.035-.432.073-.8.12-1.106l.121-.726a5.267,5.267,0,0,0,.056-.733,3.141,3.141,0,0,0-.115-.791,1.575,1.575,0,0,0-.328-.566,1.05,1.05,0,0,0-.386-.323,1.774,1.774,0,0,0-.579-.193,1.265,1.265,0,0,0-.91.212,1.763,1.763,0,0,0-.675.915,3.309,3.309,0,0,0-.207-.591,1.294,1.294,0,0,0-.326-.407,1.061,1.061,0,0,0-.458-.18,1.556,1.556,0,0,0-.457.014,1.024,1.024,0,0,0-.413.193,1.094,1.094,0,0,0-.333.333,1.692,1.692,0,0,0-.193.33,2.908,2.908,0,0,0-.2.7l-.037.272c-.024.123-.028.193-.035.225a.534.534,0,0,0-.008.105l-.021.166-.151,1.408-.116.964.307.032c.061-.221.1-.36.113-.415a.474.474,0,0,1,.088-.248c.018-.017.028-.032.046-.036a1.162,1.162,0,0,1,.406.014c.8.1,1.3.153,1.492.18l1.825.247a4.512,4.512,0,0,1,.7.137.771.771,0,0,1,.184.1,2.2,2.2,0,0,1,.045.464c0,.1,0,.182,0,.252l.346.062c.059-.561.091-.891.1-1.016Zm-3.077-1.436a3.916,3.916,0,0,0,.08-.4,1.7,1.7,0,0,0-.1-1.011.929.929,0,0,0-.772-.444.9.9,0,0,0-.734.215,1.43,1.43,0,0,0-.41.9c-.008.122-.017.289-.017.482.068.014.159.025.285.039.248.02.584.063,1.026.121l.364.068a2.2,2.2,0,0,1,.275.03Zm2.74.322a1.387,1.387,0,0,0,.193-.505,1.777,1.777,0,0,0-.036-.817,1,1,0,0,0-.348-.51,1.557,1.557,0,0,0-.646-.237,1.364,1.364,0,0,0-.687.06,1.11,1.11,0,0,0-.534.458,2.507,2.507,0,0,0-.24.9.889.889,0,0,0-.014.379l.525.069.634.109.99.125A.554.554,0,0,0,27.816,47.371Zm1.415-4.455c.087-.279.156-.493.207-.638l.3-.707c.156-.308.247-.475.267-.512a.584.584,0,0,0,.053-.1,1.06,1.06,0,0,1,.052-.149.362.362,0,0,1,.031-.086.78.78,0,0,0-.139-.056.985.985,0,0,0-.205-.067c-.077.131-.122.211-.137.23a2.43,2.43,0,0,1-.254.421.2.2,0,0,1-.1-.026l-.152-.059-.807-.325-.529-.228-1.061-.425c-.247-.1-.591-.242-1.041-.432a2.941,2.941,0,0,1-.289-.1,1.668,1.668,0,0,1-.289-.15,2.116,2.116,0,0,1,.038-.386c.02-.149.035-.289.041-.41-.068-.032-.132-.059-.174-.083l-.127-.041c-.019.053-.059.176-.126.371-.118.36-.208.622-.274.772-.014.035-.056.124-.12.263l-.5,1.136.351.134c.02-.033.041-.084.066-.134a1.856,1.856,0,0,1,.318-.5,1.094,1.094,0,0,1,.144.025l.175.061.466.175.208.1.532.206c.016,0,.289.125.812.354l.223.084.911.376.475.193a.686.686,0,0,1,.31.208,1.62,1.62,0,0,1-.019.448c-.022.136-.032.236-.042.3l.3.118c.016-.051.054-.171.107-.356Zm1.823-3.99c.235-.365.438-.675.625-.926l.445-.579a4.751,4.751,0,0,0,.4-.628,3.523,3.523,0,0,0,.268-.742,1.862,1.862,0,0,0-.022-.661,1.2,1.2,0,0,0-.193-.467,2.157,2.157,0,0,0-.419-.44,1.287,1.287,0,0,0-.91-.234,1.823,1.823,0,0,0-1.025.492,4.64,4.64,0,0,0,.1-.624,1.253,1.253,0,0,0-.1-.512,1.061,1.061,0,0,0-.32-.373,1.264,1.264,0,0,0-.4-.2A1.13,1.13,0,0,0,29.041,33a1.43,1.43,0,0,0-.451.147,2.647,2.647,0,0,0-.324.2,2.565,2.565,0,0,0-.5.523l-.163.226c-.079.1-.12.16-.14.186a.343.343,0,0,0-.06.085l-.1.139-.8,1.169-.552.8.26.175.3-.317a.558.558,0,0,1,.193-.178.086.086,0,0,1,.064-.011,2.065,2.065,0,0,1,.35.2c.662.459,1.074.744,1.221.858l1.5,1.073a6.476,6.476,0,0,1,.557.452.76.76,0,0,1,.111.174,1.675,1.675,0,0,1-.177.431c-.041.088-.079.168-.107.231l.275.207c.3-.455.495-.74.558-.837ZM29.01,36.21a2.688,2.688,0,0,0,.258-.316,1.736,1.736,0,0,0,.386-.939.939.939,0,0,0-.476-.754.892.892,0,0,0-.743-.155,1.415,1.415,0,0,0-.786.6,4.663,4.663,0,0,0-.243.421c.055.043.131.091.23.164.208.135.493.326.843.588l.289.223C28.827,36.081,28.9,36.133,29.01,36.21Zm2.269,1.582a1.325,1.325,0,0,0,.4-.359,1.806,1.806,0,0,0,.354-.737.915.915,0,0,0-.069-.615,1.42,1.42,0,0,0-.461-.513,1.242,1.242,0,0,0-.635-.264,1.1,1.1,0,0,0-.685.15,2.789,2.789,0,0,0-.633.675,1.254,1.254,0,0,0-.193.328l.431.312.518.386.811.574a.426.426,0,0,0,.16.063Zm4.487-10.771q.466-.185.606-.1a2.773,2.773,0,0,1,.406.729l.833,1.887a5.884,5.884,0,0,0,.432.816,1.71,1.71,0,0,0,.619.558,1.682,1.682,0,0,0,.856.134,3.136,3.136,0,0,0,1.127-.3,3.525,3.525,0,0,0,.885-.543,2.218,2.218,0,0,0,.537-.611,1.654,1.654,0,0,0,.214-.628,1.421,1.421,0,0,0-.033-.5,7.74,7.74,0,0,0-.428-1.106l-.4-.787c-.091-.193-.184-.386-.275-.568a.813.813,0,0,1-.08-.162,2.291,2.291,0,0,1-.1-.219c-.071-.16-.131-.273-.166-.338a1.361,1.361,0,0,1-.106-.2.187.187,0,0,1-.013-.168,1.369,1.369,0,0,1,.271-.186,1.591,1.591,0,0,0,.289-.185.289.289,0,0,0-.036-.113.621.621,0,0,0-.1-.17l-.069.019a6.963,6.963,0,0,1-.72.36l-.772.3-.313.136.126.31.058-.013.366-.173a.494.494,0,0,1,.349,0c.069.027.14.121.222.276l.11.193c.429.772.783,1.471,1.061,2.11a3.431,3.431,0,0,1,.289.846,1.936,1.936,0,0,1-.021.5.8.8,0,0,1-.139.332,1.27,1.27,0,0,1-.281.345,3.094,3.094,0,0,1-.666.412,1.556,1.556,0,0,1-.725.124,1,1,0,0,1-.5-.17,1.68,1.68,0,0,1-.511-.633l-.49-.964-.289-.7-.16-.307-.156-.374-.07-.143c-.027-.05-.059-.116-.1-.2a1.6,1.6,0,0,1-.168-.493.429.429,0,0,1,.261-.219,3.292,3.292,0,0,0,.443-.233l-.008-.03-.112-.231-.027-.052a2.556,2.556,0,0,1-.314.145c-.156.072-.331.159-.528.261s-.407.193-.616.284c-.063.028-.271.113-.627.247-.144.06-.289.118-.422.176-.048.026-.1.047-.148.074l.154.307A.772.772,0,0,0,35.766,27.021Zm9.012-3.131a1,1,0,0,1,.344.217.386.386,0,0,1,.1.173,2.359,2.359,0,0,1,.088.692l.048.881.043,1.4V27.5c0,.1.012.378,0,.839,0,.155-.013.255-.064.289a1.031,1.031,0,0,1-.426.07h-.171a1.245,1.245,0,0,0-.2.024v.159c0,.052.013.108.013.176a.741.741,0,0,0,.151.013l.249-.023c.153-.015.46-.04.919-.063.492.033.789.047.879.04l.171-.012-.032-.363a.868.868,0,0,0-.115-.025,3.5,3.5,0,0,1-.737-.067c-.026-.059-.045-.1-.059-.13a1.273,1.273,0,0,1-.02-.161c-.037-.276-.063-.529-.081-.766l-.048-.563v-.307c0-.1,0-.2-.01-.3l-.1-1.608.726.614c.3.25.632.545,1,.879l.558.539.757.71,1.086,1.006.542.517.493-.036-.012-.231c0-.023-.009-.1-.024-.21l.008-.232-.023-.229-.018-.53a1.765,1.765,0,0,0-.014-.233l-.1-1.517c0-.1-.016-.186-.02-.26-.031-.244-.052-.579-.07-.994-.007-.193-.016-.311-.016-.365-.014-.107-.018-.165-.018-.183a.265.265,0,0,1,.035-.161,2.2,2.2,0,0,1,.219-.166,1.862,1.862,0,0,1,.317-.1.641.641,0,0,0,.193-.087l-.016-.282c-.056,0-.11,0-.18.011l-.937.062-.854.052-.1.019v.256a1.35,1.35,0,0,0,.354.089.8.8,0,0,1,.427.131c.042.038.064.149.071.337,0,.062.033.278.074.651a5.89,5.89,0,0,1,.048.649c.018.239.035.446.053.616s.038.407.057.7l.033.5v.108c-1.817-1.692-2.87-2.672-3.163-2.956s-.667-.622-1.13-1.01h-.135c-.031,0-.109.007-.267.02s-.24.015-.264.02a.686.686,0,0,1-.1,0c-.173,0-.264,0-.306,0-.062,0-.193.009-.36.025h-.122l-.378.019.032.3a3.211,3.211,0,0,1,.594.105Zm8.077,5.336c.289.045.508.083.661.117l.744.193c.326.111.5.184.544.2a.738.738,0,0,0,.106.039c.01,0,.074.012.16.031a.481.481,0,0,1,.078.014c.021-.063.032-.108.046-.143a1.662,1.662,0,0,0,.03-.213c-.135-.058-.221-.089-.241-.1a3.183,3.183,0,0,1-.457-.193.289.289,0,0,1,.015-.1l.04-.164.2-.841.15-.559.274-1.113c.06-.258.156-.616.285-1.087.011-.081.035-.176.06-.3a1.857,1.857,0,0,1,.1-.312c.1,0,.232-.014.386-.009s.289-.006.416-.012c.02-.08.038-.141.052-.193a.819.819,0,0,0,.028-.131c-.056-.014-.182-.035-.386-.07-.372-.072-.64-.123-.8-.165l-.28-.078-1.184-.353-.079.379a.788.788,0,0,0,.143.048,1.736,1.736,0,0,1,.542.244.932.932,0,0,1,0,.14l-.044.185-.1.482-.068.221-.138.56c0,.017-.08.3-.236.855l-.058.228-.241.955-.123.5a.813.813,0,0,1-.165.339,1.678,1.678,0,0,1-.452.044h-.289l-.076.3ZM58.42,25.26a1.41,1.41,0,0,1,.3.243.492.492,0,0,1,.076.216c0,.044-.01.366-.045.957l-.117,1.274-.144,2.006c-.067.579-.1.908-.122,1s-.027.184-.038.277a1.639,1.639,0,0,0,.205.113,1.022,1.022,0,0,0,.193.1c.128-.108.344-.313.649-.613l.077-.048c.239-.211.386-.332.421-.365.143-.131.289-.25.406-.357a4.55,4.55,0,0,0,.361-.311l1.166-1a11.01,11.01,0,0,1,.987-.8.579.579,0,0,1,.177-.072,4.1,4.1,0,0,1,.707.069.7.7,0,0,0,.071-.142l.073-.123c-.1-.044-.23-.1-.386-.164a4.745,4.745,0,0,1-.56-.256c-.209-.115-.413-.233-.622-.373s-.338-.218-.379-.24a1.466,1.466,0,0,0-.109.169.483.483,0,0,0-.038.135c.038.03.091.059.143.1a.8.8,0,0,1,.129.1.834.834,0,0,1,.3.3.163.163,0,0,1,.013.167,1,1,0,0,1-.221.255c-.105.1-.253.24-.445.425a1.731,1.731,0,0,1-.132.137l-.257.211L60.152,29.66l-.518.429c.027-.207.047-.429.062-.669l.1-1.217a10.473,10.473,0,0,1,.116-1.3l.058-.4a.168.168,0,0,1,.035-.09.149.149,0,0,1,.088-.077.583.583,0,0,1,.319.014c.045.01.208.069.476.171.014-.021.062-.131.156-.316l-.275-.149c-.1-.032-.229-.087-.4-.164-.24-.106-.4-.182-.471-.226a12.417,12.417,0,0,1-1.212-.709c-.031-.014-.107-.065-.231-.137l-.179.333Zm6.95,4.051c.049.053.08.107.125.149a2.7,2.7,0,0,1,.289.386c.025.041.055.082.068.108a.2.2,0,0,1,.043.138.767.767,0,0,0-.053.068l-.363.394-.353.339-.482.5-.359.335-1.168,1.143-.09.09c-.091.086-.15.147-.179.179a.92.92,0,0,1-.262.186,2.536,2.536,0,0,1-.529-.351,2.566,2.566,0,0,0-.268-.2l-.215.214.379.363.124.129c.377.344.675.638.923.891.482.5.889.932,1.212,1.3.47.527.765.843.868.964.077.075.193.182.321.312l.409-.289.7-.456.119-.069a1.181,1.181,0,0,1,.146-.115,1.287,1.287,0,0,0-.105-.1,1.252,1.252,0,0,0-.163-.152,2.191,2.191,0,0,1-.919.215,1.061,1.061,0,0,1-.568-.174,5.229,5.229,0,0,1-.777-.675,3.527,3.527,0,0,1-.693-.846.239.239,0,0,1,.078-.248l.675-.641c.172-.16.376-.356.617-.6a.889.889,0,0,1,.107-.1c.173.14.407.369.712.675a3.672,3.672,0,0,1,.425.482.309.309,0,0,1,.035.2,1.75,1.75,0,0,1-.258.462,2.616,2.616,0,0,0-.155.238l.215.226.067-.063c.063-.062.156-.151.262-.275.122-.126.206-.221.262-.271s.1-.087.152-.139.208-.193.424-.4c.1-.1.236-.23.411-.423l-.18-.174-.048-.043a4.211,4.211,0,0,1-.56.334.422.422,0,0,1-.229.033,1.014,1.014,0,0,1-.344-.237c-.168-.146-.432-.4-.783-.767-.038-.04-.076-.089-.122-.146l.386-.376.527-.5c.353-.346.558-.54.608-.6.2.193.42.417.666.675.216.218.41.436.579.643.1.122.154.187.171.208a1.141,1.141,0,0,1,.171.225,1.994,1.994,0,0,1-.1.475l-.1.346c-.047.114-.086.193-.111.257a1.483,1.483,0,0,0,.1.115l.13.122c.027-.026.056-.043.06-.052l.124-.13.652-.625a.3.3,0,0,0,.1-.211,4.552,4.552,0,0,0-.49-.606l-.55-.56c-.362-.386-.772-.784-1.244-1.233-.311-.3-.5-.482-.567-.56a5.565,5.565,0,0,1-.521-.6c-.067-.1-.164-.207-.271-.339Zm1.019,8.651a1.254,1.254,0,0,0-.131.072l.1.168a4.247,4.247,0,0,0,.232.431l.306.521c.014.028.039.077.075.146.049.1.18.444.405,1.025l.083.16c.006.015.02.044.045.1a2.184,2.184,0,0,0,.3-.125,3.837,3.837,0,0,0-.114-.6,1.074,1.074,0,0,1-.04-.335L68.4,39.2l.852-.443a2.453,2.453,0,0,1,.273-.118c.063.12.109.21.14.261a.85.85,0,0,1,.114.439,1.786,1.786,0,0,1-.3.482c-.414.548-.72.936-.915,1.172-.071.1-.183.24-.319.445l-.193.246a1.606,1.606,0,0,0,.1.168c.092.149.14.234.153.261l.193.394c.057.121.1.228.139.317l.073.155.071.214.05.077.041.1a.356.356,0,0,0,.1-.04.4.4,0,0,0,.1-.078,1.246,1.246,0,0,0,0-.331,1.361,1.361,0,0,1,0-.369,3.709,3.709,0,0,1,.317-.533L70.1,40.9c.073-.114.167-.269.262-.451.052-.088.1-.159.14-.219a1.64,1.64,0,0,0,.861.538,1.243,1.243,0,0,0,.829-.1,1.354,1.354,0,0,0,.707-.925,2.041,2.041,0,0,0-.212-1.467,10.4,10.4,0,0,0-.514-.942l-.261-.472-.108-.2c-.012-.015-.05-.122-.132-.315-.1-.178-.151-.3-.181-.355a2.241,2.241,0,0,0-.2-.349l-.049.008-.23.118c.024.076.084.225.167.443l.063.248c-.146.082-.488.258-1.024.522-.249.121-.508.245-.795.376l-.215.1-.364.186-.476.216-.858.427c-.218.1-.34.163-.378.178A.841.841,0,0,1,67,38.49a2.092,2.092,0,0,1-.258-.317.83.83,0,0,0-.229-.258.675.675,0,0,0-.121.044Zm3.5.482c.05.131.1.218.12.277a1.577,1.577,0,0,0,.7.827.861.861,0,0,0,.772-.034,1.6,1.6,0,0,0,.419-.289.92.92,0,0,0,.246-.326,1.157,1.157,0,0,0,.048-.491,2.219,2.219,0,0,0-.215-.579,1.472,1.472,0,0,0-.174-.3l-.072.026-.514.262-.331.145-.422.214c-.121.049-.273.123-.469.209Zm5.083,7.049a3.319,3.319,0,0,0-.046-.619,1.99,1.99,0,0,0-.753-1.34,1.582,1.582,0,0,0-1.237-.259,1.764,1.764,0,0,0-.669.31,1.53,1.53,0,0,0-.49.593,4.653,4.653,0,0,0-.281,1.181,3.556,3.556,0,0,1-.254,1.048.832.832,0,0,1-.528.405.874.874,0,0,1-.513-.079.922.922,0,0,1-.4-.38,1.589,1.589,0,0,1-.2-.491,1.31,1.31,0,0,1,0-.494,1.016,1.016,0,0,1,.132-.422,1.73,1.73,0,0,1,.289-.359,5.657,5.657,0,0,1,.526-.375l-.084-.386-.163.03c-.074.014-.2.043-.386.081-.351.084-.542.127-.579.129l-.046.014c-.038.017-.066.035-.069.054a.932.932,0,0,0-.055.289l-.054.542a4.028,4.028,0,0,0,.054.729,2.646,2.646,0,0,0,.223.723,2.134,2.134,0,0,0,.357.506,2.707,2.707,0,0,0,.38.341,1.2,1.2,0,0,0,.438.183,2.24,2.24,0,0,0,.818-.006,1.792,1.792,0,0,0,.59-.213,1.724,1.724,0,0,0,.441-.443,1.821,1.821,0,0,0,.259-.635,4.028,4.028,0,0,0,.116-.675,2.5,2.5,0,0,1,.283-1.11.8.8,0,0,1,.482-.345.716.716,0,0,1,.584.138,1,1,0,0,1,.353.607,1.039,1.039,0,0,1-.2.831,2.273,2.273,0,0,1-.685.521v.049l.044.313.017.041a.867.867,0,0,0,.165-.01,6.478,6.478,0,0,0,.675-.184c.187-.066.33-.119.422-.163a5.44,5.44,0,0,0,.057-.68Zm-5.34,3.517c.027.289.034.518.034.668l-.025.772c-.041.343-.062.538-.065.579a.9.9,0,0,0-.019.108c0,.014,0,.069.008.166v.081c.067.007.115.014.147.014.06,0,.136-.008.216-.014.027-.153.04-.244.04-.267a4.365,4.365,0,0,1,.088-.482c.044,0,.077-.009.1-.009h.168l.868.013.579.019,1.149.013c.26.006.636.015,1.127.036a2.348,2.348,0,0,1,.3-.007,1.39,1.39,0,0,1,.329.029,3.179,3.179,0,0,1,.111.369,2.177,2.177,0,0,0,.1.4c.073.008.136.015.185.015H75.2c0-.056-.007-.193-.015-.4-.022-.386-.022-.651-.022-.818A2.51,2.51,0,0,1,75.184,50l.069-1.236h-.379a.7.7,0,0,0-.017.154,1.668,1.668,0,0,1-.11.579.977.977,0,0,1-.145.028h-.184l-.494.009-.228-.016h-.579c-.016,0-.307-.018-.882-.047H72l-.989-.03H70.5a.75.75,0,0,1-.368-.084A1.757,1.757,0,0,1,70,48.933c-.031-.136-.052-.227-.068-.289l-.316,0A2.9,2.9,0,0,0,69.63,49Zm5.289,4.861a8.626,8.626,0,0,1-1-.652.978.978,0,0,0-.225.207c-.008.038.023.1.086.193a2.673,2.673,0,0,1,.427.689,1.378,1.378,0,0,1-.066.546,7.559,7.559,0,0,1-.252.841.069.069,0,0,1-.034.05.08.08,0,0,1-.066.013,7.123,7.123,0,0,1-.8-.189L71.4,55.161c-.734-.193-1.259-.343-1.6-.452a.632.632,0,0,1-.193-.107,4.282,4.282,0,0,1-.025-.657.616.616,0,0,0-.08-.394l-.037-.007-.1-.024c-.021,0-.056-.014-.1-.022-.014.051-.038.152-.066.315-.076.416-.128.67-.146.754-.143.526-.247.891-.324,1.086a6.8,6.8,0,0,0-.229.727,1.258,1.258,0,0,1-.039.153c.048.019.08.034.108.041a1.542,1.542,0,0,0,.184.022,1.61,1.61,0,0,0,.128-.2,1.755,1.755,0,0,0,.146-.289,1.425,1.425,0,0,1,.125-.231,1.173,1.173,0,0,1,.448.064l.549.147,1.329.345,1.226.33.571.152a1.485,1.485,0,0,1,.26.089,2.989,2.989,0,0,1-.065.3,8.293,8.293,0,0,1-.258.876.244.244,0,0,1-.1.1,2.329,2.329,0,0,1-.386.07,2.641,2.641,0,0,0-.531.118,1.513,1.513,0,0,0-.019.313,1.52,1.52,0,0,0,.193.071l.212.058.368.1c.4.1.687.171.874.22.017-.053.026-.1.038-.123l.048-.183a.792.792,0,0,0-.1-.073.844.844,0,0,1-.17-.168l.031-.26.346-1.3.255-.943.138-.513.015-.079c.044-.169.1-.36.156-.579.087-.343.143-.532.157-.569a1.983,1.983,0,0,1,.319-.108.289.289,0,0,0,.083-.023l.069-.258ZM72.557,61.21c-.016-.014-.042-.03-.052-.038a.419.419,0,0,0-.066-.022c-.172.173-.264.262-.289.284a.59.59,0,0,1-.164.079c-.266.018-.417.032-.445.032l-.753-.014-1.548.011a1.758,1.758,0,0,0-.258.016,1.066,1.066,0,0,1-.682-.1l-.084-.052c-.023-.016-.1-.065-.238-.15s-.386-.253-.762-.489l-.209-.139c.009-.031.014-.067.022-.106l.3-.759c-.049-.034-.086-.059-.114-.076a.616.616,0,0,0-.116-.067l-.163.248a1.764,1.764,0,0,0-.156.289.653.653,0,0,1-.092.173l-.193.3-.262.411-.183.26-.289.367-.289.415a1.169,1.169,0,0,0,.1.069.419.419,0,0,0,.084.062.084.084,0,0,0,.09.015,1.581,1.581,0,0,0,.311-.35c.1-.106.156-.178.193-.208a.24.24,0,0,1,.065-.013l.939.593a1.34,1.34,0,0,1,.186.133l.1.063.312.208.112.074a.492.492,0,0,1,.09.14c.088.167.231.527.436,1.061l.4.937a2.834,2.834,0,0,1,.313.829,1.32,1.32,0,0,1-.139.5l-.013.056.268.176a.69.69,0,0,1,.059-.105c.076-.133.127-.238.17-.327l.038-.061.113-.176a.311.311,0,0,1,.069-.08l.521-.724a2.565,2.565,0,0,0-.283-.149c-.023.023-.055.057-.1.1a1.061,1.061,0,0,1-.118.124.778.778,0,0,1-.115.148.333.333,0,0,1-.1.061.481.481,0,0,1-.077-.029.56.56,0,0,1-.113-.167l-.344-.667,0-.04c-.175-.394-.3-.708-.378-.939l-.289-.716a1.842,1.842,0,0,1,.261-.011h.313a.677.677,0,0,1,.09,0c.279.011.432.014.472.011h.456a6.322,6.322,0,0,1,1.137.014l.046.04v.03c-.053.117-.092.2-.122.271l-.073.176a1,1,0,0,0-.076.232l.18.123a.474.474,0,0,0,.087.027l.018-.027a.371.371,0,0,0,.026-.061,5.3,5.3,0,0,1,.333-.592c.123-.179.282-.412.509-.7a3.4,3.4,0,0,1,.224-.28l.019-.044c.014-.022.045-.059.092-.115l.031-.031a2.148,2.148,0,0,0,.266-.474A1.1,1.1,0,0,1,72.557,61.21Z" transform="translate(-20.33 -20.944)" fill="#fff" fill-rule="evenodd"/>
    </g>
    <g id="Group_1474" data-name="Group 1474" transform="translate(-17.043 96.738)">
      <path id="Path_97" data-name="Path 97" d="M110.695,0H0" transform="translate(0 18.446)" fill="#231f20" stroke="#5e2568" stroke-width="0.6"/>
      <g id="Group_1473" data-name="Group 1473" transform="translate(0.437 0)">
        <path id="Path_44" data-name="Path 44" d="M614.485,148.48c.4,0,1.146.05,2.341.05,1.228,0,1.881-.05,2.324-.05a.824.824,0,0,1-.016.531,5.452,5.452,0,0,0-.78.149c-.332.116-.415.3-.432.813-.017.73-.017,1.693-.017,2.839a.205.205,0,0,0,.083.133,21.073,21.073,0,0,0,2.374.033c1.295,0,1.876,0,2.075-.017.033-.017.1-.066.1-.111,0-.83,0-2.291-.033-3.1a.546.546,0,0,0-.349-.548,3.51,3.51,0,0,0-.913-.183.6.6,0,0,1,0-.531c.6,0,1.228.05,2.374.05,1.2,0,1.859-.05,2.258-.05a.657.657,0,0,1,0,.531,3.849,3.849,0,0,0-.813.166c-.315.116-.415.282-.432.813-.033.93-.033,1.726-.033,3.752,0,1.212,0,2.689.033,3.37.033.448.1.7.4.8a4.793,4.793,0,0,0,1.046.2.791.791,0,0,1-.066.553c-.448,0-1.311-.05-2.39-.05-1.013,0-1.992.05-2.374.05a.706.706,0,0,1-.017-.553,4.147,4.147,0,0,0,.847-.149c.3-.083.432-.282.448-.8.016-.681.016-2.058.016-3.138a.111.111,0,0,0-.1-.116c-.315-.017-1.344-.017-2.125-.017-1.71.017-2.258.017-2.357.05a.279.279,0,0,0-.05.1c0,1,0,2.374.017,2.988.017.515.083.78.481.9a6.386,6.386,0,0,0,.946.183.78.78,0,0,1-.066.553c-.315,0-1.1-.05-2.473-.05-1.179,0-2.008.05-2.357.05a.906.906,0,0,1,0-.553c.383-.05.564-.083.8-.133.443-.116.547-.382.58-1.112.016-.349.033-1.843.033-3.3,0-1.61-.017-3.171-.033-3.6-.033-.515-.111-.7-.443-.78a5.347,5.347,0,0,0-.912-.166A.81.81,0,0,1,614.485,148.48Z" transform="translate(-614.408 -147.501)" fill="#5e2568"/>
        <path id="Path_45" data-name="Path 45" d="M728.833,179.794a1.41,1.41,0,0,0-1.179-.548,1.242,1.242,0,0,0-.764.2,5.146,5.146,0,0,0-.6,1.062c-.067.066-.581-.183-.564-.3a3.387,3.387,0,0,1,.365-1.046,5.607,5.607,0,0,1,2.457-1.013,2.153,2.153,0,0,1,1.859.963,2.937,2.937,0,0,1,.414,1.677c0,.8-.049,1.942-.049,2.606,0,.332.111.647.513.647a1.66,1.66,0,0,0,.564-.083,1.893,1.893,0,0,1-.083.614,2.543,2.543,0,0,1-1.66.614.942.942,0,0,1-.963-.481l-.1-.315c0-.033-.05-.033-.067-.033a4.5,4.5,0,0,1-1.892.83,1.431,1.431,0,0,1-.963-.4,2.2,2.2,0,0,1-.631-1.594,3.052,3.052,0,0,1,.282-.979c.515-.282,2.545-.764,3.154-1.046a.3.3,0,0,0,.133-.183,1.8,1.8,0,0,0,.017-.3A1.6,1.6,0,0,0,728.833,179.794ZM729,181.7a12.014,12.014,0,0,0-1.594.614,1.359,1.359,0,0,0-.149.548,1.111,1.111,0,0,0,1.112,1.179.987.987,0,0,0,.531-.149.368.368,0,0,0,.133-.332c.033-.465.033-1.494.033-1.776,0-.013-.05-.08-.066-.08Z" transform="translate(-713.201 -173.887)" fill="#5e2568"/>
        <path id="Path_46" data-name="Path 46" d="M790.565,144.726a3.28,3.28,0,0,1,.764,2.158,3.62,3.62,0,0,1-1.411,3.038,5.664,5.664,0,0,1-2.688,1.013,6.133,6.133,0,0,1-1.577-.216,1.814,1.814,0,0,0-.946,0c-.05.017-.149-.083-.149-.116.05-.564.083-1.826.083-4.167-.017-2.424-.017-4.565-.083-5.146-.033-.266-.083-.382-.365-.465a5.343,5.343,0,0,0-.714-.116.727.727,0,0,1,.033-.5,13.827,13.827,0,0,0,3.071-.581c.05.017.111.221.1.3-.133.232-.183.481-.183,2.457v2.224c.017.05.05.066.083.05a5.711,5.711,0,0,1,2.125-.764A2.373,2.373,0,0,1,790.565,144.726Zm-3.933.465a.315.315,0,0,0-.116.232c-.033.714-.033,2.64.017,3.5a.983.983,0,0,0,.282.747,1.721,1.721,0,0,0,1.162.432,1.094,1.094,0,0,0,.93-.465,3.236,3.236,0,0,0,.513-1.909,3.3,3.3,0,0,0-.531-2.009,1.616,1.616,0,0,0-1.46-.73A1.992,1.992,0,0,0,786.632,145.191Z" transform="translate(-764.741 -139.63)" fill="#5e2568"/>
        <path id="Path_47" data-name="Path 47" d="M866.733,161.191c-.332,0-.913-.05-1.892-.05-.847,0-1.477.05-1.843.05a.9.9,0,0,1,0-.553,2.943,2.943,0,0,0,.648-.133c.216-.083.266-.232.282-.631s.033-1.444.033-2.274c0-.581-.017-1.228-.017-1.527a.58.58,0,0,0-.133-.4,1.6,1.6,0,0,0-.7-.382.687.687,0,0,1,.05-.481,10.244,10.244,0,0,0,2.673-.553c0,.7-.017,1.892-.017,2.855,0,.863,0,1.975.017,2.739,0,.432.1.564.315.647a3.813,3.813,0,0,0,.648.133A.807.807,0,0,1,866.733,161.191Zm-1.339-8.167a1.966,1.966,0,0,1-1.079.083.979.979,0,0,1-.515-.714,1.18,1.18,0,0,1,.1-.714,1.911,1.911,0,0,1,1.1-.349.934.934,0,0,1,.664.2,1.082,1.082,0,0,1,.149.564A1.279,1.279,0,0,1,865.394,153.023Z" transform="translate(-835.448 -150.035)" fill="#5e2568"/>
        <path id="Path_48" data-name="Path 48" d="M907.406,144.726a3.28,3.28,0,0,1,.764,2.158,3.621,3.621,0,0,1-1.411,3.038,5.664,5.664,0,0,1-2.689,1.013,6.133,6.133,0,0,1-1.577-.216,1.814,1.814,0,0,0-.946,0c-.05.017-.149-.083-.149-.116.05-.564.083-1.826.083-4.167-.017-2.424-.017-4.565-.083-5.146-.033-.266-.083-.382-.365-.465a5.345,5.345,0,0,0-.714-.116.728.728,0,0,1,.033-.5,13.83,13.83,0,0,0,3.071-.581c.05.017.111.221.1.3-.133.232-.182.481-.182,2.457v2.224c.016.05.05.066.083.05a5.711,5.711,0,0,1,2.125-.764A2.375,2.375,0,0,1,907.406,144.726Zm-3.934.465a.315.315,0,0,0-.111.232c-.033.714-.033,2.64.017,3.5a.983.983,0,0,0,.282.747,1.721,1.721,0,0,0,1.162.432,1.1,1.1,0,0,0,.93-.465,3.229,3.229,0,0,0,.514-1.909,3.346,3.346,0,0,0-.531-2.009,1.619,1.619,0,0,0-1.461-.73A1.991,1.991,0,0,0,903.472,145.191Z" transform="translate(-868.65 -139.63)" fill="#5e2568"/>
        <path id="Path_49" data-name="Path 49" d="M1006.924,148.48c.515,0,1.478.05,2.407.05.979,0,1.81-.05,2.391-.05a.733.733,0,0,1,0,.531c-.3.05-.564.1-.764.149-.4.083-.531.349-.553.885-.033,1.328,0,3.088,0,3.968a10.061,10.061,0,0,0,.2,1.959c.232,1.079,1.1,1.843,2.706,1.843,1.2,0,2.457-.4,2.623-2.772.083-1.245.1-3.619.032-4.781-.032-.7-.182-.979-.729-1.079a7.447,7.447,0,0,0-.929-.166.834.834,0,0,1,.016-.531c.514,0,1.211.05,2.041.05,1.079,0,1.577-.05,1.925-.05a.657.657,0,0,1,0,.531,6.342,6.342,0,0,0-.7.149c-.432.116-.564.382-.6,1.2-.05,1.494-.083,3.431-.2,4.565-.249,3-1.974,3.984-4.265,3.984-2.877,0-3.918-1.378-4.117-3.055-.15-1.162-.116-4.25-.133-5.843-.017-.432-.133-.714-.515-.83a4.993,4.993,0,0,0-.863-.166A.884.884,0,0,1,1006.924,148.48Z" transform="translate(-963.438 -147.501)" fill="#5e2568"/>
        <path id="Path_50" data-name="Path 50" d="M1110.467,183.888c.232-.066.315-.3.348-.631.017-.5.033-1.771.033-2.606,0-.481-.017-1.1-.033-1.311-.033-.166-.166-.382-.813-.614a.987.987,0,0,1,.083-.448,8.77,8.77,0,0,0,2.546-.7.168.168,0,0,1,.066.111c0,.183-.016.647-.016.93a.059.059,0,0,0,.028.046.06.06,0,0,0,.054,0,4.027,4.027,0,0,1,2.174-1.029,1.89,1.89,0,0,1,1.677.88,3.573,3.573,0,0,1,.431,1.959c0,.979,0,2.424.017,2.971a.344.344,0,0,0,.15.282,1.877,1.877,0,0,0,.813.249.919.919,0,0,1-.083.553c-.25,0-.747-.05-1.809-.05-.863,0-1.261.033-1.771.05a1.229,1.229,0,0,1,0-.553,4.487,4.487,0,0,0,.531-.1c.2-.083.264-.232.282-.553a29.378,29.378,0,0,0-.067-3.4,1.269,1.269,0,0,0-.48-.83,1.2,1.2,0,0,0-.813-.249,1.838,1.838,0,0,0-.963.315.442.442,0,0,0-.15.365c.017,1.112.017,2.889.033,3.768.017.415.111.515.349.581a2.727,2.727,0,0,0,.553.1,1.062,1.062,0,0,1-.05.553c-.515-.017-1.062-.05-1.859-.05-1.013,0-1.477.033-1.793.05a1.026,1.026,0,0,1,0-.553A3.179,3.179,0,0,0,1110.467,183.888Z" transform="translate(-1055.06 -173.38)" fill="#5e2568"/>
        <path id="Path_51" data-name="Path 51" d="M1191.777,161.191c-.332,0-.913-.05-1.892-.05-.847,0-1.477.05-1.843.05a.907.907,0,0,1,0-.553,2.942,2.942,0,0,0,.648-.133c.221-.083.265-.232.282-.631s.033-1.444.033-2.274c0-.581-.017-1.228-.017-1.527a.577.577,0,0,0-.133-.4,1.6,1.6,0,0,0-.7-.382.689.689,0,0,1,.05-.481,10.244,10.244,0,0,0,2.673-.553c0,.7-.017,1.892-.017,2.855,0,.863,0,1.975.017,2.739,0,.432.1.564.315.647a3.813,3.813,0,0,0,.647.133A.8.8,0,0,1,1191.777,161.191Zm-1.343-8.167a1.966,1.966,0,0,1-1.079.083.979.979,0,0,1-.514-.714,1.18,1.18,0,0,1,.1-.714,1.911,1.911,0,0,1,1.1-.349.934.934,0,0,1,.664.2,1.082,1.082,0,0,1,.149.564A1.28,1.28,0,0,1,1190.433,153.023Z" transform="translate(-1124.519 -150.035)" fill="#5e2568"/>
        <path id="Path_52" data-name="Path 52" d="M1223.689,179.83c.481.017,1.228.05,1.909.05.813,0,1.378-.033,1.743-.05a.654.654,0,0,1,.033.531,5.182,5.182,0,0,0-.6.149.18.18,0,0,0-.1.221c.2.647,1.063,2.888,1.345,3.569.017.033.05.017.066,0,.315-.78.963-2.39,1.179-3.121.15-.443.033-.581-.15-.647a3.5,3.5,0,0,0-.747-.166.808.808,0,0,1,.066-.531c.232,0,.885.05,1.494.05.531,0,1.146-.033,1.461-.05a.738.738,0,0,1-.017.531,4.353,4.353,0,0,0-.581.133c-.266.1-.443.332-.664.8-.431.9-1.029,2.274-1.593,3.685-.266.7-.432,1.162-.564,1.56a5.68,5.68,0,0,0-1.062.017c-.133-.432-.315-.913-.515-1.444-.415-1.129-.946-2.424-1.262-3.2-.481-1.145-.564-1.278-.946-1.411a4.133,4.133,0,0,0-.581-.133A1.1,1.1,0,0,1,1223.689,179.83Z" transform="translate(-1156.182 -175.381)" fill="#5e2568"/>
        <path id="Path_53" data-name="Path 53" d="M1301.776,183.276a1.928,1.928,0,0,1-.066.515,4.061,4.061,0,0,1-2.922,1.428,2.934,2.934,0,0,1-2.158-.8,3.761,3.761,0,0,1-.979-2.706,3.455,3.455,0,0,1,1.527-2.988,4.022,4.022,0,0,1,1.926-.548,2.547,2.547,0,0,1,2.523,2.39c.016.083.149.166.265.2a.991.991,0,0,1-.111.432,29.912,29.912,0,0,1-4.183.382c-.05,0-.083.1-.083.166a2.381,2.381,0,0,0,.647,1.461,2.14,2.14,0,0,0,1.643.631,2.944,2.944,0,0,0,1.909-.664C1301.725,183.193,1301.776,183.227,1301.776,183.276Zm-4.283-2.523c0,.017.033.1.1.1a16.868,16.868,0,0,0,2.1-.066.183.183,0,0,0,.111-.149c-.083-.979-.5-1.809-1.217-1.809-.632,0-1.08.8-1.1,1.926Z" transform="translate(-1220.257 -173.914)" fill="#5e2568"/>
        <path id="Path_54" data-name="Path 54" d="M1363.316,178.095a1.129,1.129,0,0,1,0,.332,5.651,5.651,0,0,1-.664,1.361.3.3,0,0,1-.2.05,1.913,1.913,0,0,0-1.245-.647.885.885,0,0,0-.614.349.659.659,0,0,0-.1.349c-.017.946,0,3.038.017,3.287.033.432.083.581.415.664a4.761,4.761,0,0,0,.913.149.936.936,0,0,1-.083.553c-.3,0-1.2-.05-2.241-.05-.7,0-1.439.05-1.826.05a.9.9,0,0,1,0-.553,2.139,2.139,0,0,0,.648-.133c.149-.05.249-.183.266-.515.033-.3.05-1.544.05-2.623,0-.581,0-1.079-.033-1.328-.017-.221-.111-.432-.863-.7a1.175,1.175,0,0,1,.083-.432,8.124,8.124,0,0,0,2.54-.681.156.156,0,0,1,.116.083c-.017.216-.067,1.013-.067,1.278,0,.05.067.05.1.033a7.807,7.807,0,0,1,.979-.979,1.585,1.585,0,0,1,.913-.349A.985.985,0,0,1,1363.316,178.095Z" transform="translate(-1275.39 -173.38)" fill="#5e2568"/>
        <path id="Path_55" data-name="Path 55" d="M1418.272,180.272a.907.907,0,0,1-.515.033c-.133-.7-.3-1.129-.681-1.361a1.447,1.447,0,0,0-.73-.2.824.824,0,0,0-.9.8c0,.481.2.764,1.594,1.411,1.328.6,1.726,1.162,1.726,2.042,0,1.378-1.311,2.208-2.855,2.208a6.3,6.3,0,0,1-1.975-.315c-.083-.365-.232-1.677-.249-1.992a1.113,1.113,0,0,1,.531-.166,2.623,2.623,0,0,0,1.046,1.643,1.749,1.749,0,0,0,.885.232c.581,0,.946-.315.946-.764,0-.5-.3-.78-1.145-1.2-1.594-.764-2.075-1.378-2.075-2.341,0-1.145.9-2.125,2.69-2.125a9.146,9.146,0,0,1,1.145.1l.764.1A13.865,13.865,0,0,0,1418.272,180.272Z" transform="translate(-1325.233 -173.914)" fill="#5e2568"/>
        <path id="Path_56" data-name="Path 56" d="M1470.633,161.191c-.332,0-.913-.05-1.892-.05-.847,0-1.478.05-1.843.05a.9.9,0,0,1,0-.553,2.94,2.94,0,0,0,.647-.133c.221-.083.266-.232.282-.631s.033-1.444.033-2.274c0-.581-.017-1.228-.017-1.527a.581.581,0,0,0-.133-.4,1.6,1.6,0,0,0-.7-.382.685.685,0,0,1,.05-.481,10.244,10.244,0,0,0,2.673-.553c0,.7-.016,1.892-.016,2.855,0,.863,0,1.975.016,2.739,0,.432.1.564.315.647a3.813,3.813,0,0,0,.647.133A.842.842,0,0,1,1470.633,161.191Zm-1.344-8.168a1.965,1.965,0,0,1-1.079.083.978.978,0,0,1-.515-.714,1.179,1.179,0,0,1,.1-.714,1.909,1.909,0,0,1,1.1-.349.933.933,0,0,1,.664.2,1.081,1.081,0,0,1,.149.564,1.279,1.279,0,0,1-.416.93Z" transform="translate(-1372.514 -150.035)" fill="#5e2568"/>
        <path id="Path_57" data-name="Path 57" d="M1508.8,162.223c-.033,0-.066.066-.066.1-.017.681-.017,1.942-.017,2.739a5.493,5.493,0,0,0,.083,1.228.863.863,0,0,0,.9.647,1.483,1.483,0,0,0,.93-.249,1.306,1.306,0,0,1-.017.564,2.389,2.389,0,0,1-1.875.847,1.739,1.739,0,0,1-1.627-.813,3.6,3.6,0,0,1-.249-1.859c0-.863.017-2.357.017-3.054a.16.16,0,0,0-.1-.149c-.232-.017-.581-.033-.83-.066a2.428,2.428,0,0,1,.15-.647,4.325,4.325,0,0,0,.7-.166c.033,0,.067-.066.083-.133V159.8a6.658,6.658,0,0,0,1.577-.847,1.23,1.23,0,0,1,.348-.017c-.033.332-.066,1.129-.066,2.241,0,.05.033.116.066.116.5,0,1.51-.05,1.892-.083a7.316,7.316,0,0,0-.166,1.029C1510.057,162.223,1509.377,162.223,1508.8,162.223Z" transform="translate(-1407.274 -156.794)" fill="#5e2568"/>
        <path id="Path_58" data-name="Path 58" d="M1551.444,179.83c.232,0,1,.05,1.959.05.9,0,1.444-.05,1.843-.05a.959.959,0,0,1,.033.531,3.151,3.151,0,0,0-.53.152.282.282,0,0,0-.133.3c.266.8,1.162,3.071,1.345,3.453h.066a18.751,18.751,0,0,0,1.144-3.2c.018-.221.018-.432-.3-.531a3.448,3.448,0,0,0-.73-.166,1.215,1.215,0,0,1,.066-.531c.316,0,.879.05,1.493.05.564,0,1.1-.033,1.577-.05a.955.955,0,0,1,.017.531,2.169,2.169,0,0,0-.6.166c-.3.116-.5.349-.7.913a62.567,62.567,0,0,1-3.734,7.935c-.2.365-.448.8-.564,1.029l-.183.05a2.023,2.023,0,0,1-1.046-.5.659.659,0,0,1,.017-.315,19.184,19.184,0,0,0,2.357-3.3,2.432,2.432,0,0,1-.2-.382c-.382-.93-1.029-2.545-1.61-3.9-.481-1.129-.631-1.411-1.1-1.56-.166-.05-.365-.083-.581-.133A1.048,1.048,0,0,1,1551.444,179.83Z" transform="translate(-1447.665 -175.381)" fill="#5e2568"/>
      </g>
      <g id="Group_1472" data-name="Group 1472" transform="translate(0.638 21.968)">
        <path id="Path_59" data-name="Path 59" d="M619.247,362.442c-.013.039-.183.039-.209.013-.065-.588-.183-.885-.47-1.019a1.243,1.243,0,0,0-.574-.131.77.77,0,0,0-.81.8c0,.443.144.732,1.1,1.217,1.057.535,1.293.926,1.293,1.527a1.7,1.7,0,0,1-1.893,1.54,3.666,3.666,0,0,1-1.293-.248,8.144,8.144,0,0,1-.157-1.358c.013-.039.157-.078.209-.052a1.626,1.626,0,0,0,.8,1.254,1.257,1.257,0,0,0,.588.143.82.82,0,0,0,.9-.8c0-.483-.236-.745-.941-1.137-1.1-.574-1.385-1.018-1.385-1.671,0-.784.614-1.463,1.771-1.463a4.329,4.329,0,0,1,.745.065,4.427,4.427,0,0,0,.471.052A7.389,7.389,0,0,0,619.247,362.442Z" transform="translate(-616.23 -357.245)" fill="#5e2568"/>
        <path id="Path_60" data-name="Path 60" d="M676.279,327.007a5.382,5.382,0,0,0,1.79-.417.165.165,0,0,1,.052.117c-.079.144-.105.274-.117,1.136-.027.731,0,2.926,0,3.343,0,.013.025.026.052.013a3.094,3.094,0,0,1,1.789-.8c.966,0,1.5.745,1.5,2.038,0,.68,0,1.946.013,2.52a.332.332,0,0,0,.092.248,1.326,1.326,0,0,0,.664.2c.013.04,0,.2-.039.209-.169,0-.664-.039-1.24-.039s-.979.026-1.162.039a.283.283,0,0,1,0-.209,3.02,3.02,0,0,0,.509-.1c.157-.079.221-.131.235-.7a17.719,17.719,0,0,0-.065-2.664,1.135,1.135,0,0,0-1.2-.914,1.486,1.486,0,0,0-1,.365.428.428,0,0,0-.156.3c0,.913,0,2.7.025,3.056.027.4.092.522.34.588a3.194,3.194,0,0,0,.431.077.2.2,0,0,1,0,.2c-.156,0-.561-.026-1.306-.026-.574,0-.9.039-1.135.039-.013-.026-.027-.169.013-.209a2.561,2.561,0,0,0,.43-.077c.209-.065.261-.221.275-.614.025-.313.025-1.907.025-2.233,0-3.356-.012-4.44-.065-4.9-.026-.183-.065-.273-.261-.325-.117-.027-.273-.04-.5-.065A.324.324,0,0,1,676.279,327.007Z" transform="translate(-669.619 -326.59)" fill="#5e2568"/>
        <path id="Path_61" data-name="Path 61" d="M761.911,362.08a1.217,1.217,0,0,0-1.03-.5.886.886,0,0,0-.47.117,2.155,2.155,0,0,0-.522.941c-.039.039-.248-.131-.248-.236a1.689,1.689,0,0,1,.235-.626,3.638,3.638,0,0,1,1.66-.745,1.339,1.339,0,0,1,1.189.653,2.527,2.527,0,0,1,.274,1.28c0,.692-.04,1.671-.04,2.155,0,.235.092.574.47.574a1.143,1.143,0,0,0,.443-.065.844.844,0,0,1-.052.261,1.409,1.409,0,0,1-1.018.469.606.606,0,0,1-.614-.313,1.476,1.476,0,0,1-.092-.34.035.035,0,0,0-.052-.025,3.842,3.842,0,0,1-1.45.678.94.94,0,0,1-.664-.287,1.592,1.592,0,0,1-.432-1.123,2.393,2.393,0,0,1,.144-.626c.353-.209,1.972-.641,2.416-.875a.232.232,0,0,0,.079-.117c.013-.157,0-.326,0-.509A1.347,1.347,0,0,0,761.911,362.08Zm.171,1.632a7.437,7.437,0,0,0-1.594.627,1.035,1.035,0,0,0-.092.4.891.891,0,0,0,.9.954,1.464,1.464,0,0,0,.679-.2.341.341,0,0,0,.117-.275c.013-.4.026-1.267.026-1.488C762.12,363.726,762.1,363.7,762.082,363.713Z" transform="translate(-743.642 -357.223)" fill="#5e2568"/>
        <path id="Path_62" data-name="Path 62" d="M825.245,360.271a5.1,5.1,0,0,0,1.58-.653c.025-.013.091.065.079.091-.013.131-.027.6-.027.875,0,.013.039.013.052.013a3.713,3.713,0,0,1,1.842-.823,1.672,1.672,0,0,1,1.241.574,2.58,2.58,0,0,1,.574,1.646,2.848,2.848,0,0,1-1.1,2.324,3.635,3.635,0,0,1-2.064.784,2.318,2.318,0,0,1-.521-.091.088.088,0,0,0-.04.065c0,1.319.013,1.984.04,2.468.012.378.1.457.4.509.17.027.366.04.64.065.026.04.013.209-.025.221h-.6c-1.1.013-1.763.131-2.194.156-.026-.026-.04-.2,0-.221.156-.04.379-.092.522-.144.221-.092.287-.248.3-.574.026-.522.026-1.66.026-3.422,0-2,.013-2.664-.026-3.1-.013-.2-.039-.34-.156-.418a1.4,1.4,0,0,0-.575-.156A.222.222,0,0,1,825.245,360.271Zm1.776.535a.367.367,0,0,0-.157.274c-.026.275-.026,2.22,0,2.545a.821.821,0,0,0,.332.745,1.562,1.562,0,0,0,.927.248,1.491,1.491,0,0,0,.953-.366,2.257,2.257,0,0,0,.588-1.736,2.5,2.5,0,0,0-.47-1.58,1.409,1.409,0,0,0-1.107-.522A1.681,1.681,0,0,0,827.022,360.806Z" transform="translate(-801.987 -355.961)" fill="#5e2568"/>
        <path id="Path_63" data-name="Path 63" d="M908.859,347.983c-.274,0-.784-.039-1.2-.039-.536,0-1,.039-1.217.039a.284.284,0,0,1,0-.209,1.447,1.447,0,0,0,.509-.1c.157-.065.222-.169.235-.536.026-.326.026-1.371.026-2.089,0-.509,0-.966-.013-1.187a.372.372,0,0,0-.079-.261.931.931,0,0,0-.522-.249.531.531,0,0,1,0-.2,5.181,5.181,0,0,0,1.555-.392c-.013.353-.027,1.411-.027,2.207,0,.706,0,1.632.013,2.26,0,.274.091.392.275.457a2.088,2.088,0,0,0,.483.091C908.9,347.814,908.9,347.97,908.859,347.983Zm-.98-6.543a.911.911,0,0,1-.5.039.5.5,0,0,1-.273-.47.5.5,0,0,1,.065-.313.818.818,0,0,1,.522-.2.573.573,0,0,1,.352.117.468.468,0,0,1,.111.3A.609.609,0,0,1,907.88,341.441Z" transform="translate(-874.305 -338.96)" fill="#5e2568"/>
        <path id="Path_64" data-name="Path 64" d="M958.412,365.817c.182-.065.235-.275.248-.522.039-.457.025-1.358.025-2.116,0-.653-.012-1.122-.025-1.217-.027-.157-.111-.248-.614-.392-.013-.027,0-.169.04-.183a4.571,4.571,0,0,0,1.527-.5.06.06,0,0,1,.04.053c-.027.261-.04.553-.053.775,0,.039.026.065.053.052a3.16,3.16,0,0,1,1.8-.868,1.306,1.306,0,0,1,1.162.664,2.748,2.748,0,0,1,.313,1.489c0,.679,0,1.881.013,2.4,0,.157.04.261.169.3a1.693,1.693,0,0,0,.562.143c.013.04,0,.184-.04.209-.182,0-.482-.039-1.135-.039-.627,0-1.006.025-1.279.039a.285.285,0,0,1,0-.209,3.3,3.3,0,0,0,.5-.078.383.383,0,0,0,.274-.4c.025-.574.039-2.312-.027-2.756a1.5,1.5,0,0,0-.378-.836,1.049,1.049,0,0,0-.8-.288,1.549,1.549,0,0,0-1.058.432c-.091.091-.13.2-.13.47,0,.979,0,2.246.026,2.82.013.379.079.47.235.522a2.315,2.315,0,0,0,.553.117.574.574,0,0,1-.013.209c-.221,0-.588-.039-1.254-.039-.757,0-.979.039-1.188.039a.284.284,0,0,1,0-.209,1.557,1.557,0,0,0,.453-.084Z" transform="translate(-920.122 -357.094)" fill="#5e2568"/>
        <path id="Path_65" data-name="Path 65" d="M1041.886,361.289a2.48,2.48,0,0,0,.757.131c.509,0,.626-.079.8-.248.013-.013.09.025.09.065a1.449,1.449,0,0,1-.313.64.619.619,0,0,1-.417.1c-.111,0-.117,0-.332-.013-.013,0-.026.04-.013.065a2.284,2.284,0,0,1,.157.862,1.919,1.919,0,0,1-.745,1.66,2.607,2.607,0,0,1-1.423.548.787.787,0,0,1-.183.013c-.13.026-.392.157-.392.365,0,.261.287.392.469.418a21.056,21.056,0,0,1,2.129.261,1.288,1.288,0,0,1,.953,1.293,2.606,2.606,0,0,1-1.54,2.168,2.927,2.927,0,0,1-1.423.353,2.306,2.306,0,0,1-1.425-.432,1.52,1.52,0,0,1-.653-1.227,1.019,1.019,0,0,1,.092-.457,11.5,11.5,0,0,1,1.292-1.083c.014,0,0-.04-.013-.04a1.127,1.127,0,0,1-.874-.885.834.834,0,0,1,.026-.157c.184-.1.731-.417.914-.561.027-.026.013-.065-.012-.065a1.855,1.855,0,0,1-1.2-1.907,1.958,1.958,0,0,1,.719-1.527,2.894,2.894,0,0,1,1.528-.562A2.758,2.758,0,0,1,1041.886,361.289Zm.8,6.764a1,1,0,0,0-.68-1,5.05,5.05,0,0,0-1.594-.248.862.862,0,0,0-.469.131,1.345,1.345,0,0,0-.745,1.1,1.227,1.227,0,0,0,.471.966,1.991,1.991,0,0,0,1.344.418C1042.265,369.425,1042.683,368.772,1042.683,368.053Zm-3.187-5.21c0,.966.443,1.881,1.319,1.881a.836.836,0,0,0,.6-.235,1.758,1.758,0,0,0,.353-1.254c0-.81-.332-1.815-1.346-1.815C1039.81,361.42,1039.5,362.033,1039.5,362.843Z" transform="translate(-991.661 -357.254)" fill="#5e2568"/>
        <path id="Path_66" data-name="Path 66" d="M1156.465,335.362c.221-.079.275-.236.275-.5.013-.692.013-2.167.026-3.652,0-.025-.026-.1-.052-.1l-.641-.027a.634.634,0,0,1,.092-.261,1.851,1.851,0,0,0,.561-.183.111.111,0,0,0,.053-.079c0-1.619.332-2.656,1.462-3.461a2.4,2.4,0,0,1,1.162-.469,1.087,1.087,0,0,1,.979.469v.105a2.639,2.639,0,0,1-.431.626.1.1,0,0,1-.1.013,1.846,1.846,0,0,0-1.15-.613.787.787,0,0,0-.548.221c-.432.418-.471,1.549-.484,2.656,0,.079,0,.366.014.443,0,.012.026.077.052.077q1.038-.019,1.254-.039a3.513,3.513,0,0,0-.11.536c-.261,0-.953-.027-1.162-.013-.013,0-.052.092-.052.1.013,1.359,0,2.988.026,3.631.012.313.131.457.378.509a3.1,3.1,0,0,0,.561.091.388.388,0,0,1-.025.209c-.353,0-.8-.039-1.385-.039-.313,0-.941.039-1.227.039-.026-.013-.026-.169,0-.209A4.284,4.284,0,0,0,1156.465,335.362Z" transform="translate(-1096.237 -326.625)" fill="#5e2568"/>
        <path id="Path_67" data-name="Path 67" d="M1210.967,361.719a7.815,7.815,0,0,0,1.711-.209,17.021,17.021,0,0,0-.065,2.442,7.861,7.861,0,0,0,.065,1.384.992.992,0,0,0,1.07.8,1.534,1.534,0,0,0,1.02-.379.53.53,0,0,0,.156-.365c.027-.248.013-2.3-.013-2.965a.376.376,0,0,0-.248-.379,6.055,6.055,0,0,0-.822-.117.237.237,0,0,1,.027-.209,11.783,11.783,0,0,0,2.023-.2,12.51,12.51,0,0,0-.052,1.384l.014,2.585c0,.553.092.64.365.64a3.919,3.919,0,0,0,.4-.025c0,.025.013.2-.025.221-.47.131-1.294.405-1.594.522-.039,0-.079-.039-.079-.1-.013-.157,0-.522,0-.745a.051.051,0,0,0-.028-.041.053.053,0,0,0-.05,0,2.7,2.7,0,0,1-1.684.822c-1.228,0-1.475-.849-1.475-1.736,0-.614.013-1.972-.014-2.56-.013-.235-.025-.392-.182-.457a2.3,2.3,0,0,0-.561-.1A.349.349,0,0,1,1210.967,361.719Z" transform="translate(-1145.11 -357.645)" fill="#5e2568"/>
        <path id="Path_68" data-name="Path 68" d="M1293.091,349.212c-.026,0-.066.052-.066.079,0,.744-.012,2.168,0,2.742a2.655,2.655,0,0,0,.092.784.684.684,0,0,0,.692.457,1.175,1.175,0,0,0,.719-.209.7.7,0,0,1-.026.221,1.512,1.512,0,0,1-1.2.575,1.049,1.049,0,0,1-1.018-.553,3.294,3.294,0,0,1-.171-1.488c0-.693.013-1.986.013-2.508a.087.087,0,0,0-.052-.091c-.1-.027-.47-.04-.653-.052a2.364,2.364,0,0,1,.1-.314,4.351,4.351,0,0,0,.562-.1c.025-.013.039-.065.039-.079v-1.027a2.841,2.841,0,0,0,.823-.653.325.325,0,0,1,.156.027,10.577,10.577,0,0,0-.079,1.632c0,.026.04.078.066.078a14.031,14.031,0,0,0,1.411-.052,3.634,3.634,0,0,0-.111.553C1293.993,349.225,1293.5,349.212,1293.091,349.212Z" transform="translate(-1216.696 -344.733)" fill="#5e2568"/>
        <path id="Path_69" data-name="Path 69" d="M1347.607,361.719a7.812,7.812,0,0,0,1.711-.209,17.086,17.086,0,0,0-.065,2.442,7.876,7.876,0,0,0,.065,1.384.993.993,0,0,0,1.07.8,1.533,1.533,0,0,0,1.019-.379.525.525,0,0,0,.156-.365c.027-.248.013-2.3-.012-2.965a.378.378,0,0,0-.249-.379,6.066,6.066,0,0,0-.823-.117.237.237,0,0,1,.027-.209,11.786,11.786,0,0,0,2.023-.2,12.481,12.481,0,0,0-.052,1.384l.013,2.585c0,.553.092.64.366.64a3.9,3.9,0,0,0,.4-.025c0,.025.013.2-.025.221-.47.131-1.292.405-1.594.522-.038,0-.079-.039-.079-.1-.012-.157,0-.522,0-.745a.051.051,0,0,0-.077-.039,2.706,2.706,0,0,1-1.686.822c-1.227,0-1.475-.849-1.475-1.736,0-.614.013-1.972-.013-2.56-.013-.235-.025-.392-.183-.457a2.3,2.3,0,0,0-.561-.1A.35.35,0,0,1,1347.607,361.719Z" transform="translate(-1266.628 -357.645)" fill="#5e2568"/>
        <path id="Path_70" data-name="Path 70" d="M1431.937,361.2a.473.473,0,0,1,0,.2,2.464,2.464,0,0,1-.392.7.848.848,0,0,1-.1.04,1.106,1.106,0,0,0-.758-.353c-.273,0-.483.235-.664.536a1.338,1.338,0,0,0-.118.522c0,.744.013,2.272.04,2.533s.079.379.248.443a3.239,3.239,0,0,0,.68.1.238.238,0,0,1-.026.209c-.183,0-.823-.039-1.319-.039-.352,0-1.032.026-1.253.039a.283.283,0,0,1,0-.209,2.417,2.417,0,0,0,.482-.091c.118-.052.2-.131.209-.366.039-.221.052-1.345.052-2.324a10.958,10.958,0,0,0-.026-1.1c-.012-.131-.052-.353-.64-.5,0-.04.014-.157.04-.17a4.52,4.52,0,0,0,1.476-.47c.013,0,.052.027.052.04-.013.235-.013.836-.013,1.083,0,.013.04.026.053.013a4.673,4.673,0,0,1,.774-.849,1.079,1.079,0,0,1,.664-.274A.633.633,0,0,1,1431.937,361.2Z" transform="translate(-1338.383 -357.112)" fill="#5e2568"/>
        <path id="Path_71" data-name="Path 71" d="M1494.4,365.193a.545.545,0,0,1-.026.221,2.91,2.91,0,0,1-2.037,1.018,2.01,2.01,0,0,1-1.527-.626,2.92,2.92,0,0,1-.68-1.992,2.562,2.562,0,0,1,1.123-2.285,2.975,2.975,0,0,1,1.328-.418c1.217,0,1.619,1.15,1.724,1.771.013.039.039.092.156.1.013.04-.012.157-.052.17a19.639,19.639,0,0,1-3.33.3c-.052,0-.077.079-.077.144a2.538,2.538,0,0,0,.483,1.439,1.752,1.752,0,0,0,1.439.664,1.9,1.9,0,0,0,1.423-.553C1494.361,365.151,1494.4,365.164,1494.4,365.193Zm-3.356-2.143c0,.04.026.079.038.079a17.113,17.113,0,0,0,2.207-.091.136.136,0,0,0,.079-.105c-.079-.664-.443-1.488-1.2-1.488-.588,0-1.072.559-1.123,1.6Z" transform="translate(-1393.415 -357.29)" fill="#5e2568"/>
        <path id="Path_72" data-name="Path 72" d="M1564.3,362.442c-.013.039-.182.039-.209.013-.065-.588-.183-.885-.471-1.019a1.243,1.243,0,0,0-.574-.131.77.77,0,0,0-.809.8c0,.443.143.732,1.1,1.217,1.058.535,1.292.926,1.292,1.527a1.7,1.7,0,0,1-1.894,1.54,3.671,3.671,0,0,1-1.292-.248,8.2,8.2,0,0,1-.157-1.358c.013-.039.157-.078.209-.052a1.627,1.627,0,0,0,.8,1.254,1.261,1.261,0,0,0,.588.143.819.819,0,0,0,.9-.8c0-.483-.235-.745-.941-1.137-1.1-.574-1.384-1.018-1.384-1.671,0-.784.613-1.463,1.771-1.463a4.328,4.328,0,0,1,.745.065,4.435,4.435,0,0,0,.47.052A7.49,7.49,0,0,0,1564.3,362.442Z" transform="translate(-1456.691 -357.245)" fill="#5e2568"/>
      </g>
    </g>
  </g>
</svg>
