<svg xmlns="http://www.w3.org/2000/svg" width="22.118" height="18.432" viewBox="0 0 22.118 18.432">
  <path id="_003-twitter" data-name="003-twitter" d="M22.118,50.182a9.27,9.27,0,0,1-2.613.734A4.606,4.606,0,0,0,21.5,48.346a8.926,8.926,0,0,1-2.875,1.126A4.492,4.492,0,0,0,15.313,48a4.592,4.592,0,0,0-4.531,4.652,4.907,4.907,0,0,0,.105,1.061A12.732,12.732,0,0,1,1.54,48.848,4.774,4.774,0,0,0,.919,51.2a4.69,4.69,0,0,0,2.014,3.865,4.393,4.393,0,0,1-2.049-.573v.051a4.644,4.644,0,0,0,3.633,4.57,4.418,4.418,0,0,1-1.189.153,3.913,3.913,0,0,1-.858-.079,4.594,4.594,0,0,0,4.237,3.24,8.968,8.968,0,0,1-5.622,1.984A8.284,8.284,0,0,1,0,64.345a12.535,12.535,0,0,0,6.956,2.087c8.344,0,12.906-7.089,12.906-13.234,0-.206-.007-.4-.017-.6A9.178,9.178,0,0,0,22.118,50.182Z" transform="translate(0 -48)" fill="#5c2367"/>
</svg>
