<svg xmlns="http://www.w3.org/2000/svg" width="19.785" height="19.785" viewBox="0 0 19.785 19.785">
  <path id="_006-linkedin" data-name="006-linkedin" d="M18,0H1.79A1.79,1.79,0,0,0,0,1.79V18a1.79,1.79,0,0,0,1.79,1.79H18A1.79,1.79,0,0,0,19.785,18V1.79A1.79,1.79,0,0,0,18,0ZM6.122,17.084A.521.521,0,0,1,5.6,17.6H3.384a.521.521,0,0,1-.521-.521V7.79a.521.521,0,0,1,.521-.521H5.6a.521.521,0,0,1,.521.521ZM4.493,6.393A2.106,2.106,0,1,1,6.6,4.287,2.106,2.106,0,0,1,4.493,6.393ZM17.709,17.126a.479.479,0,0,1-.479.479H14.851a.479.479,0,0,1-.479-.479V12.766c0-.65.191-2.85-1.7-2.85-1.466,0-1.764,1.505-1.823,2.181v5.028a.479.479,0,0,1-.479.479h-2.3a.479.479,0,0,1-.479-.479V7.748a.479.479,0,0,1,.479-.479h2.3a.479.479,0,0,1,.479.479v.811a3.266,3.266,0,0,1,3.072-1.446c3.809,0,3.788,3.559,3.788,5.515v4.5Z" fill="#5c2367"/>
</svg>
