<svg xmlns="http://www.w3.org/2000/svg" width="18" height="18" viewBox="0 0 18 18">
  <g id="plus" transform="translate(21881.5 -1145)">
    <rect id="Rectangle_792" data-name="Rectangle 792" width="5" height="18" transform="translate(-21875 1145)" fill="#5d2468"/>
    <rect id="Rectangle_793" data-name="Rectangle 793" width="5" height="18" transform="translate(-21863.5 1151.5) rotate(90)" fill="#5d2468"/>
  </g>
</svg>
