<svg xmlns="http://www.w3.org/2000/svg" width="13.475" height="16.903" viewBox="0 0 13.475 16.903">
  <g id="Resgister_now_arrow" data-name="Resgister now arrow" transform="translate(-602.045 -3677.94)">
    <path id="Path_25931" data-name="Path 25931" d="M609.158,3679l7.391,7.391-7.391,7.391" transform="translate(-2.089)" fill="none" stroke="#5d2468" stroke-linecap="round" stroke-width="1.5"/>
    <path id="Path_25932" data-name="Path 25932" d="M614.1,3690h-11.3" transform="translate(0 -3.613)" fill="none" stroke="#5d2468" stroke-linecap="round" stroke-width="1.5"/>
  </g>
</svg>
