<svg xmlns="http://www.w3.org/2000/svg" width="12" height="12" viewBox="0 0 12 12">
  <g id="plus" transform="translate(21881 -1145)">
    <rect id="Rectangle_792" data-name="Rectangle 792" width="4" height="12" transform="translate(-21877 1145)" fill="#5d2468"/>
    <rect id="Rectangle_793" data-name="Rectangle 793" width="4" height="12" transform="translate(-21869 1149) rotate(90)" fill="#5d2468"/>
  </g>
</svg>
