<svg xmlns="http://www.w3.org/2000/svg" width="19.482" height="19.482" viewBox="0 0 19.482 19.482">
  <path id="phone" d="M6.918,11.431a16.4,16.4,0,0,0,7.133,7.133l2.381-2.381a1.076,1.076,0,0,1,1.1-.26,12.346,12.346,0,0,0,3.864.617,1.086,1.086,0,0,1,1.082,1.082V21.4A1.086,1.086,0,0,1,21.4,22.482,18.4,18.4,0,0,1,3,4.082,1.086,1.086,0,0,1,4.082,3H7.87A1.086,1.086,0,0,1,8.953,4.082,12.3,12.3,0,0,0,9.57,7.946,1.086,1.086,0,0,1,9.3,9.05Z" transform="translate(-3 -3)" fill="#5d2468"/>
</svg>
